simulation/qsim/Mgenerator.msim.vcd
$comment
	File created using the following command:
		vcd file Mgenerator.msim.vcd -direction
$end
$date
	Thu Oct 01 13:49:58 2020
$end
$version
	ModelSim Version 10.5b
$end
$timescale
	1ps
$end

$scope module MGeneratorInConnect_vlg_vec_tst $end
$var reg 1 ! ALOAD $end
$var reg 5 " ASDATA [4:0] $end
$var reg 1 # Clock $end
$var wire 1 $ Out $end
$var wire 1 % State [4] $end
$var wire 1 & State [3] $end
$var wire 1 ' State [2] $end
$var wire 1 ( State [1] $end
$var wire 1 ) State [0] $end

$scope module i1 $end
$var wire 1 * gnd $end
$var wire 1 + vcc $end
$var wire 1 , unknown $end
$var tri1 1 - devclrn $end
$var tri1 1 . devpor $end
$var tri1 1 / devoe $end
$var wire 1 0 Out~output_o $end
$var wire 1 1 State[4]~output_o $end
$var wire 1 2 State[3]~output_o $end
$var wire 1 3 State[2]~output_o $end
$var wire 1 4 State[1]~output_o $end
$var wire 1 5 State[0]~output_o $end
$var wire 1 6 ALOAD~input_o $end
$var wire 1 7 ASDATA[4]~input_o $end
$var wire 1 8 Clock~input_o $end
$var wire 1 9 Clock~inputclkctrl_outclk $end
$var wire 1 : ASDATA[3]~input_o $end
$var wire 1 ; ALOAD~inputclkctrl_outclk $end
$var wire 1 < inst12~1_combout $end
$var wire 1 = ASDATA[2]~input_o $end
$var wire 1 > inst11~1_combout $end
$var wire 1 ? ASDATA[1]~input_o $end
$var wire 1 @ inst10~1_combout $end
$var wire 1 A ASDATA[0]~input_o $end
$var wire 1 B inst1~1_combout $end
$var wire 1 C inst1~3_combout $end
$var wire 1 D inst1~_emulated_q $end
$var wire 1 E inst1~2_combout $end
$var wire 1 F inst10~3_combout $end
$var wire 1 G inst10~_emulated_q $end
$var wire 1 H inst10~2_combout $end
$var wire 1 I inst11~3_combout $end
$var wire 1 J inst11~_emulated_q $end
$var wire 1 K inst11~2_combout $end
$var wire 1 L inst12~3_combout $end
$var wire 1 M inst12~_emulated_q $end
$var wire 1 N inst12~2_combout $end
$var wire 1 O inst13~1_combout $end
$var wire 1 P inst13~3_combout $end
$var wire 1 Q inst13~_emulated_q $end
$var wire 1 R inst13~2_combout $end
$upscope $end
$upscope $end
$enddefinitions $end
#0
$dumpvars
1!
b1 "
0#
0$
1)
0(
0'
0&
0%
0*
1+
x,
1-
1.
1/
00
01
02
03
04
15
16
07
08
09
0:
1;
0<
0=
0>
0?
0@
1A
1B
1C
0D
1E
1F
0G
0H
0I
0J
0K
0L
0M
0N
0O
0P
0Q
0R
$end
#10000
0!
b0 "
1#
06
0A
18
0;
19
1G
1D
1H
0E
05
14
1(
0)
1I
0F
#20000
0#
08
09
#30000
1#
18
19
1J
0G
1K
0H
04
13
1'
0(
1L
0I
#40000
0#
08
09
#50000
1#
18
19
1M
0J
1N
0K
03
12
1&
0'
1P
0L
#60000
0#
08
09
#70000
1#
18
19
1Q
0M
1R
0N
02
10
11
1%
1$
0&
1I
1F
0C
#80000
0#
08
09
#90000
1#
18
19
1J
1G
0D
1K
1H
1E
15
14
13
1'
1(
1)
1L
0I
0F
#100000
0#
08
09
#110000
1#
18
19
1M
0J
0G
1N
0K
0H
04
03
12
1&
0'
0(
0P
0L
1I
#120000
0#
08
09
#130000
1#
18
19
0Q
0M
1J
0R
0N
1K
13
02
00
01
0%
0$
0&
1'
0I
1F
1C
1L
#140000
0#
08
09
#150000
1#
18
19
1M
0J
1G
1D
1N
0K
1H
0E
05
14
03
12
1&
0'
1(
0)
1P
0L
1I
0F
#160000
0#
08
09
#170000
1#
18
19
1Q
0M
1J
0G
1R
0N
1K
0H
04
13
02
10
11
1%
1$
0&
1'
0(
1F
0C
1L
#180000
0#
08
09
#190000
1#
18
19
1M
1G
0D
1N
1H
1E
15
14
12
1&
1(
1)
0P
0I
0F
#200000
0#
08
09
#210000
1#
18
19
0Q
0J
0G
0R
0K
0H
04
03
00
01
0%
0$
0'
0(
1P
1F
1C
0L
#220000
0#
08
09
#230000
1#
18
19
1Q
0M
1G
1D
1R
0N
1H
0E
05
14
02
10
11
1%
1$
0&
1(
0)
0C
#240000
0#
08
09
#250000
1#
18
19
0D
1E
15
1)
0F
#260000
0#
08
09
#270000
1#
18
19
0G
0H
04
0(
1I
#280000
0#
08
09
#290000
1#
18
19
1J
1K
13
1'
1L
#300000
0#
08
09
#310000
1#
18
19
1M
1N
12
1&
0P
#320000
0#
08
09
#330000
1#
18
19
0Q
0R
00
01
0%
0$
1P
0I
1F
1C
#340000
0#
08
09
#350000
1#
18
19
1Q
0J
1G
1D
1R
0K
1H
0E
05
14
03
10
11
1%
1$
0'
1(
0)
0P
0C
0L
#360000
0#
08
09
#370000
1#
18
19
0Q
0M
0D
0R
0N
1E
15
02
00
01
0%
0$
0&
1)
1I
1C
#380000
0#
08
09
#390000
1#
18
19
1J
1D
1K
0E
05
13
1'
0)
1L
0F
#400000
0#
08
09
#410000
1#
18
19
1M
0G
1N
0H
04
12
1&
0(
1P
0I
#420000
0#
08
09
#430000
1#
18
19
1Q
0J
1R
0K
03
10
11
1%
1$
0'
0P
1I
1F
0C
0L
#440000
0#
08
09
#450000
1#
18
19
0Q
0M
1J
1G
0D
0R
0N
1K
1H
1E
15
14
13
02
00
01
0%
0$
0&
1'
1(
1)
1C
1L
#460000
0#
08
09
#470000
1#
18
19
1M
1D
1N
0E
05
12
1&
0)
1P
0F
#480000
0#
08
09
#490000
1#
18
19
1Q
0G
1R
0H
04
10
11
1%
1$
0(
0P
1F
0C
#500000
0#
08
09
#510000
1#
18
19
0Q
1G
0D
0R
1H
1E
15
14
00
01
0%
0$
1(
1)
1P
1C
#520000
0#
08
09
#530000
1#
18
19
1Q
1D
1R
0E
05
10
11
1%
1$
0)
0P
0I
0C
#540000
0#
08
09
#550000
1#
18
19
0Q
0J
0D
0R
0K
1E
15
03
00
01
0%
0$
0'
1)
1P
1I
1C
0L
#560000
0#
08
09
#570000
1#
18
19
1Q
0M
1J
1D
1R
0N
1K
0E
05
13
02
10
11
1%
1$
0&
1'
0)
0I
0C
1L
#580000
0#
08
09
#590000
1#
18
19
1M
0J
0D
1N
0K
1E
15
03
12
1&
0'
1)
0P
0L
0F
#600000
0#
08
09
#610000
1#
18
19
0Q
0M
0G
0R
0N
0H
04
02
00
01
0%
0$
0&
0(
1F
1C
#620000
0#
08
09
#630000
1#
18
19
1G
1D
1H
0E
05
14
1(
0)
1I
0F
#640000
0#
08
09
#650000
1#
18
19
1J
0G
1K
0H
04
13
1'
0(
1L
0I
#660000
0#
08
09
#670000
1#
18
19
1M
0J
1N
0K
03
12
1&
0'
1P
0L
#680000
0#
08
09
#690000
1#
18
19
1Q
0M
1R
0N
02
10
11
1%
1$
0&
1I
1F
0C
#700000
0#
08
09
#710000
1#
18
19
1J
1G
0D
1K
1H
1E
15
14
13
1'
1(
1)
1L
0I
0F
#720000
0#
08
09
#730000
1#
18
19
1M
0J
0G
1N
0K
0H
04
03
12
1&
0'
0(
0P
0L
1I
#740000
0#
08
09
#750000
1#
18
19
0Q
0M
1J
0R
0N
1K
13
02
00
01
0%
0$
0&
1'
0I
1F
1C
1L
#760000
0#
08
09
#770000
1#
18
19
1M
0J
1G
1D
1N
0K
1H
0E
05
14
03
12
1&
0'
1(
0)
1P
0L
1I
0F
#780000
0#
08
09
#790000
1#
18
19
1Q
0M
1J
0G
1R
0N
1K
0H
04
13
02
10
11
1%
1$
0&
1'
0(
1F
0C
1L
#800000
0#
08
09
#810000
1#
18
19
1M
1G
0D
1N
1H
1E
15
14
12
1&
1(
1)
0P
0I
0F
#820000
0#
08
09
#830000
1#
18
19
0Q
0J
0G
0R
0K
0H
04
03
00
01
0%
0$
0'
0(
1P
1F
1C
0L
#840000
0#
08
09
#850000
1#
18
19
1Q
0M
1G
1D
1R
0N
1H
0E
05
14
02
10
11
1%
1$
0&
1(
0)
0C
#860000
0#
08
09
#870000
1#
18
19
0D
1E
15
1)
0F
#880000
0#
08
09
#890000
1#
18
19
0G
0H
04
0(
1I
#900000
0#
08
09
#910000
1#
18
19
1J
1K
13
1'
1L
#920000
0#
08
09
#930000
1#
18
19
1M
1N
12
1&
0P
#940000
0#
08
09
#950000
1#
18
19
0Q
0R
00
01
0%
0$
1P
0I
1F
1C
#960000
0#
08
09
#970000
1#
18
19
1Q
0J
1G
1D
1R
0K
1H
0E
05
14
03
10
11
1%
1$
0'
1(
0)
0P
0C
0L
#980000
0#
08
09
#990000
1#
18
19
0Q
0M
0D
0R
0N
1E
15
02
00
01
0%
0$
0&
1)
1I
1C
