simulation/qsim/Mgenerator.msim.vcd
$comment
	File created using the following command:
		vcd file MGenerator.msim.vcd -direction
$end
$date
	Thu Nov 12 21:17:21 2020
$end
$version
	ModelSim Version 10.5b
$end
$timescale
	1ps
$end

$scope module MGenerator_vlg_vec_tst $end
$var reg 1 ! ALOAD $end
$var reg 5 " ASDATA [4:0] $end
$var reg 1 # CLOCK $end
$var wire 1 $ Out $end
$var wire 1 % STATE [4] $end
$var wire 1 & STATE [3] $end
$var wire 1 ' STATE [2] $end
$var wire 1 ( STATE [1] $end
$var wire 1 ) STATE [0] $end
$var wire 1 * TEST_OUT [4] $end
$var wire 1 + TEST_OUT [3] $end
$var wire 1 , TEST_OUT [2] $end
$var wire 1 - TEST_OUT [1] $end
$var wire 1 . TEST_OUT [0] $end

$scope module i1 $end
$var wire 1 / gnd $end
$var wire 1 0 vcc $end
$var wire 1 1 unknown $end
$var tri1 1 2 devclrn $end
$var tri1 1 3 devpor $end
$var tri1 1 4 devoe $end
$var wire 1 5 Out~output_o $end
$var wire 1 6 STATE[4]~output_o $end
$var wire 1 7 STATE[3]~output_o $end
$var wire 1 8 STATE[2]~output_o $end
$var wire 1 9 STATE[1]~output_o $end
$var wire 1 : STATE[0]~output_o $end
$var wire 1 ; TEST_OUT[4]~output_o $end
$var wire 1 < TEST_OUT[3]~output_o $end
$var wire 1 = TEST_OUT[2]~output_o $end
$var wire 1 > TEST_OUT[1]~output_o $end
$var wire 1 ? TEST_OUT[0]~output_o $end
$var wire 1 @ CLOCK~input_o $end
$var wire 1 A CLOCK~inputclkctrl_outclk $end
$var wire 1 B ASDATA[4]~input_o $end
$var wire 1 C ALOAD~input_o $end
$var wire 1 D ALOAD~inputclkctrl_outclk $end
$var wire 1 E inst2~1_combout $end
$var wire 1 F ASDATA[3]~input_o $end
$var wire 1 G inst1~1_combout $end
$var wire 1 H ASDATA[2]~input_o $end
$var wire 1 I ASDATA[1]~input_o $end
$var wire 1 J ASDATA[0]~input_o $end
$var wire 1 K inst12~1_combout $end
$var wire 1 L inst12~3_combout $end
$var wire 1 M inst12~_emulated_q $end
$var wire 1 N inst12~2_combout $end
$var wire 1 O inst11~1_combout $end
$var wire 1 P inst11~3_combout $end
$var wire 1 Q inst11~_emulated_q $end
$var wire 1 R inst11~2_combout $end
$var wire 1 S inst10~1_combout $end
$var wire 1 T inst10~3_combout $end
$var wire 1 U inst10~_emulated_q $end
$var wire 1 V inst10~2_combout $end
$var wire 1 W inst1~3_combout $end
$var wire 1 X inst1~_emulated_q $end
$var wire 1 Y inst1~2_combout $end
$var wire 1 Z inst2~3_combout $end
$var wire 1 [ inst2~_emulated_q $end
$var wire 1 \ inst2~2_combout $end
$var wire 1 ] inst6~0_combout $end
$upscope $end
$upscope $end
$enddefinitions $end
#0
$dumpvars
1!
b10000 "
0#
0$
0)
0(
0'
0&
1%
0.
0-
0,
0+
1*
0/
10
x1
12
13
14
05
16
07
08
09
0:
1;
0<
0=
0>
0?
0@
0A
1B
1C
1D
1E
0F
0G
0H
0I
0J
0K
0L
0M
0N
0O
0P
0Q
0R
0S
0T
0U
0V
0W
0X
0Y
1Z
0[
1\
1]
$end
#10000
1#
1@
1A
#20000
0!
b0 "
0#
0C
0B
0@
0D
0A
#30000
1#
1@
1A
1[
0\
06
0;
0]
0*
0%
1L
15
1$
#40000
0#
0@
0A
#50000
1#
1@
1A
1M
1N
1:
1?
1.
1)
1P
#60000
0#
0@
0A
#70000
1#
1@
1A
1Q
1R
19
1>
1]
1-
1(
1T
0L
05
0$
#80000
0#
0@
0A
#90000
1#
1@
1A
1U
0M
1V
0N
0:
0?
18
1=
0]
1,
1'
0.
0)
1W
1L
0P
15
1$
#100000
0#
0@
0A
#110000
1#
1@
1A
1X
0Q
1M
1Y
0R
1N
1:
1?
09
0>
17
1<
1]
1+
1&
0-
0(
1.
1)
0Z
0T
0L
1P
05
0$
#120000
0#
0@
0A
#130000
1#
1@
1A
0[
0U
1Q
0M
1\
0V
1R
0N
0:
0?
19
1>
08
0=
16
1;
0]
1*
1%
0,
0'
1-
1(
0.
0)
1L
0W
1T
0P
15
1$
#140000
0#
0@
0A
#150000
1#
1@
1A
0X
1U
0Q
1M
0Y
1V
0R
1N
1:
1?
09
0>
18
1=
07
0<
0+
0&
1,
1'
0-
0(
1.
1)
1Z
1W
0T
1P
#160000
0#
0@
0A
#170000
1#
1@
1A
1[
1X
0U
1Q
0\
1Y
0V
1R
19
1>
08
0=
17
1<
06
0;
1]
0*
0%
1+
1&
0,
0'
1-
1(
0L
0Z
0W
1T
05
0$
#180000
0#
0@
0A
#190000
1#
1@
1A
0[
0X
1U
0M
1\
0Y
1V
0N
0:
0?
18
1=
07
0<
16
1;
1*
1%
0+
0&
1,
1'
0.
0)
1Z
1W
0P
#200000
0#
0@
0A
#210000
1#
1@
1A
1[
1X
0Q
0\
1Y
0R
09
0>
17
1<
06
0;
0*
0%
1+
1&
0-
0(
0Z
0T
#220000
0#
0@
0A
#230000
1#
1@
1A
0[
0U
1\
0V
08
0=
16
1;
1*
1%
0,
0'
0W
#240000
0#
0@
0A
#250000
1#
1@
1A
0X
0Y
07
0<
0+
0&
1Z
#260000
0#
0@
0A
#270000
1#
1@
1A
1[
0\
06
0;
0]
0*
0%
1L
15
1$
#280000
0#
0@
0A
#290000
1#
1@
1A
1M
1N
1:
1?
1.
1)
1P
#300000
0#
0@
0A
#310000
1#
1@
1A
1Q
1R
19
1>
1]
1-
1(
1T
0L
05
0$
#320000
0#
0@
0A
#330000
1#
1@
1A
1U
0M
1V
0N
0:
0?
18
1=
0]
1,
1'
0.
0)
1W
1L
0P
15
1$
#340000
0#
0@
0A
#350000
1#
1@
1A
1X
0Q
1M
1Y
0R
1N
1:
1?
09
0>
17
1<
1]
1+
1&
0-
0(
1.
1)
0Z
0T
0L
1P
05
0$
#360000
0#
0@
0A
#370000
1#
1@
1A
0[
0U
1Q
0M
1\
0V
1R
0N
0:
0?
19
1>
08
0=
16
1;
0]
1*
1%
0,
0'
1-
1(
0.
0)
1L
0W
1T
0P
15
1$
#380000
0#
0@
0A
#390000
1#
1@
1A
0X
1U
0Q
1M
0Y
1V
0R
1N
1:
1?
09
0>
18
1=
07
0<
0+
0&
1,
1'
0-
0(
1.
1)
1Z
1W
0T
1P
#400000
0#
0@
0A
#410000
1#
1@
1A
1[
1X
0U
1Q
0\
1Y
0V
1R
19
1>
08
0=
17
1<
06
0;
1]
0*
0%
1+
1&
0,
0'
1-
1(
0L
0Z
0W
1T
05
0$
#420000
0#
0@
0A
#430000
1#
1@
1A
0[
0X
1U
0M
1\
0Y
1V
0N
0:
0?
18
1=
07
0<
16
1;
1*
1%
0+
0&
1,
1'
0.
0)
1Z
1W
0P
#440000
0#
0@
0A
#450000
1#
1@
1A
1[
1X
0Q
0\
1Y
0R
09
0>
17
1<
06
0;
0*
0%
1+
1&
0-
0(
0Z
0T
#460000
0#
0@
0A
#470000
1#
1@
1A
0[
0U
1\
0V
08
0=
16
1;
1*
1%
0,
0'
0W
#480000
0#
0@
0A
#490000
1#
1@
1A
0X
0Y
07
0<
0+
0&
1Z
#500000
0#
0@
0A
#510000
1#
1@
1A
1[
0\
06
0;
0]
0*
0%
1L
15
1$
#520000
0#
0@
0A
#530000
1#
1@
1A
1M
1N
1:
1?
1.
1)
1P
#540000
0#
0@
0A
#550000
1#
1@
1A
1Q
1R
19
1>
1]
1-
1(
1T
0L
05
0$
#560000
0#
0@
0A
#570000
1#
1@
1A
1U
0M
1V
0N
0:
0?
18
1=
0]
1,
1'
0.
0)
1W
1L
0P
15
1$
#580000
0#
0@
0A
#590000
1#
1@
1A
1X
0Q
1M
1Y
0R
1N
1:
1?
09
0>
17
1<
1]
1+
1&
0-
0(
1.
1)
0Z
0T
0L
1P
05
0$
#600000
0#
0@
0A
#610000
1#
1@
1A
0[
0U
1Q
0M
1\
0V
1R
0N
0:
0?
19
1>
08
0=
16
1;
0]
1*
1%
0,
0'
1-
1(
0.
0)
1L
0W
1T
0P
15
1$
#620000
0#
0@
0A
#630000
1#
1@
1A
0X
1U
0Q
1M
0Y
1V
0R
1N
1:
1?
09
0>
18
1=
07
0<
0+
0&
1,
1'
0-
0(
1.
1)
1Z
1W
0T
1P
#640000
0#
0@
0A
#650000
1#
1@
1A
1[
1X
0U
1Q
0\
1Y
0V
1R
19
1>
08
0=
17
1<
06
0;
1]
0*
0%
1+
1&
0,
0'
1-
1(
0L
0Z
0W
1T
05
0$
#660000
0#
0@
0A
#670000
1#
1@
1A
0[
0X
1U
0M
1\
0Y
1V
0N
0:
0?
18
1=
07
0<
16
1;
1*
1%
0+
0&
1,
1'
0.
0)
1Z
1W
0P
#680000
0#
0@
0A
#690000
1#
1@
1A
1[
1X
0Q
0\
1Y
0R
09
0>
17
1<
06
0;
0*
0%
1+
1&
0-
0(
0Z
0T
#700000
0#
0@
0A
#710000
1#
1@
1A
0[
0U
1\
0V
08
0=
16
1;
1*
1%
0,
0'
0W
#720000
0#
0@
0A
#730000
1#
1@
1A
0X
0Y
07
0<
0+
0&
1Z
#740000
0#
0@
0A
#750000
1#
1@
1A
1[
0\
06
0;
0]
0*
0%
1L
15
1$
#760000
0#
0@
0A
#770000
1#
1@
1A
1M
1N
1:
1?
1.
1)
1P
#780000
0#
0@
0A
#790000
1#
1@
1A
1Q
1R
19
1>
1]
1-
1(
1T
0L
05
0$
#800000
0#
0@
0A
#810000
1#
1@
1A
1U
0M
1V
0N
0:
0?
18
1=
0]
1,
1'
0.
0)
1W
1L
0P
15
1$
#820000
0#
0@
0A
#830000
1#
1@
1A
1X
0Q
1M
1Y
0R
1N
1:
1?
09
0>
17
1<
1]
1+
1&
0-
0(
1.
1)
0Z
0T
0L
1P
05
0$
#840000
0#
0@
0A
#850000
1#
1@
1A
0[
0U
1Q
0M
1\
0V
1R
0N
0:
0?
19
1>
08
0=
16
1;
0]
1*
1%
0,
0'
1-
1(
0.
0)
1L
0W
1T
0P
15
1$
#860000
0#
0@
0A
#870000
1#
1@
1A
0X
1U
0Q
1M
0Y
1V
0R
1N
1:
1?
09
0>
18
1=
07
0<
0+
0&
1,
1'
0-
0(
1.
1)
1Z
1W
0T
1P
#880000
0#
0@
0A
#890000
1#
1@
1A
1[
1X
0U
1Q
0\
1Y
0V
1R
19
1>
08
0=
17
1<
06
0;
1]
0*
0%
1+
1&
0,
0'
1-
1(
0L
0Z
0W
1T
05
0$
#900000
0#
0@
0A
#910000
1#
1@
1A
0[
0X
1U
0M
1\
0Y
1V
0N
0:
0?
18
1=
07
0<
16
1;
1*
1%
0+
0&
1,
1'
0.
0)
1Z
1W
0P
#920000
0#
0@
0A
#930000
1#
1@
1A
1[
1X
0Q
0\
1Y
0R
09
0>
17
1<
06
0;
0*
0%
1+
1&
0-
0(
0Z
0T
#940000
0#
0@
0A
#950000
1#
1@
1A
0[
0U
1\
0V
08
0=
16
1;
1*
1%
0,
0'
0W
#960000
0#
0@
0A
#970000
1#
1@
1A
0X
0Y
07
0<
0+
0&
1Z
#980000
0#
0@
0A
#990000
1#
1@
1A
1[
0\
06
0;
0]
0*
0%
1L
15
1$
