simulation/qsim/Mgenerator.msim.vcd
$comment
	File created using the following command:
		vcd file MGenerator.msim.vcd -direction
$end
$date
	Fri Sep 25 15:48:28 2020
$end
$version
	ModelSim Version 10.5b
$end
$timescale
	1ps
$end

$scope module MGenerator_vlg_vec_tst $end
$var reg 1 ! ALOAD $end
$var reg 5 " ASDATA [4:0] $end
$var reg 1 # CLOCK $end
$var wire 1 $ Out $end
$var wire 1 % STATE [4] $end
$var wire 1 & STATE [3] $end
$var wire 1 ' STATE [2] $end
$var wire 1 ( STATE [1] $end
$var wire 1 ) STATE [0] $end

$scope module i1 $end
$var wire 1 * gnd $end
$var wire 1 + vcc $end
$var wire 1 , unknown $end
$var tri1 1 - devclrn $end
$var tri1 1 . devpor $end
$var tri1 1 / devoe $end
$var wire 1 0 Out~output_o $end
$var wire 1 1 STATE[4]~output_o $end
$var wire 1 2 STATE[3]~output_o $end
$var wire 1 3 STATE[2]~output_o $end
$var wire 1 4 STATE[1]~output_o $end
$var wire 1 5 STATE[0]~output_o $end
$var wire 1 6 ALOAD~input_o $end
$var wire 1 7 ASDATA[4]~input_o $end
$var wire 1 8 CLOCK~input_o $end
$var wire 1 9 CLOCK~inputclkctrl_outclk $end
$var wire 1 : ALOAD~inputclkctrl_outclk $end
$var wire 1 ; inst2~1_combout $end
$var wire 1 < ASDATA[3]~input_o $end
$var wire 1 = inst1~1_combout $end
$var wire 1 > ASDATA[2]~input_o $end
$var wire 1 ? inst10~1_combout $end
$var wire 1 @ ASDATA[1]~input_o $end
$var wire 1 A inst11~1_combout $end
$var wire 1 B ASDATA[0]~input_o $end
$var wire 1 C inst12~1_combout $end
$var wire 1 D inst12~3_combout $end
$var wire 1 E inst12~_emulated_q $end
$var wire 1 F inst12~2_combout $end
$var wire 1 G inst11~3_combout $end
$var wire 1 H inst11~_emulated_q $end
$var wire 1 I inst11~2_combout $end
$var wire 1 J inst10~3_combout $end
$var wire 1 K inst10~_emulated_q $end
$var wire 1 L inst10~2_combout $end
$var wire 1 M inst1~3_combout $end
$var wire 1 N inst1~_emulated_q $end
$var wire 1 O inst1~2_combout $end
$var wire 1 P inst2~3_combout $end
$var wire 1 Q inst2~_emulated_q $end
$var wire 1 R inst2~2_combout $end
$var wire 1 S inst6~0_combout $end
$upscope $end
$upscope $end
$enddefinitions $end
#0
$dumpvars
1!
b1 "
0#
0$
1)
0(
0'
0&
0%
0*
1+
x,
1-
1.
1/
00
01
02
03
04
15
16
07
08
09
1:
0;
0<
0=
0>
0?
0@
0A
1B
1C
1D
0E
1F
1G
0H
0I
0J
0K
0L
0M
0N
0O
0P
0Q
0R
0S
$end
#10000
0!
b0 "
06
0B
0:
#12500
1#
18
19
1H
1E
1I
0F
05
14
1(
0)
1S
1J
0G
10
1$
0D
#25000
0#
08
09
#37500
1#
18
19
1K
0H
0E
1L
0I
1F
15
04
13
1'
0(
1)
1M
0J
1G
#50000
0#
08
09
#62500
1#
18
19
1N
0K
1H
1O
0L
1I
14
03
12
1&
0'
1(
0S
1P
0M
1J
00
0$
1D
#75000
0#
08
09
#87500
1#
18
19
1Q
0N
1K
1E
1R
0O
1L
0F
05
13
02
11
1%
0&
1'
0)
1S
0P
1M
0G
10
1$
0D
#100000
0#
08
09
#112500
1#
18
19
0Q
1N
0H
0E
0R
1O
0I
1F
15
04
12
01
0%
1&
0(
1)
0S
1P
0J
1G
00
0$
1D
#125000
0#
08
09
#137500
1#
18
19
1Q
0K
1H
1E
1R
0L
1I
0F
05
14
03
11
1%
0'
1(
0)
1S
0M
1J
0G
10
1$
0D
#150000
0#
08
09
#162500
1#
18
19
0N
1K
0H
0E
0O
1L
0I
1F
15
04
13
02
0&
1'
0(
1)
0S
0P
1M
0J
1G
00
0$
1D
#175000
0#
08
09
#187500
1#
18
19
0Q
1N
0K
1H
1E
0R
1O
0L
1I
0F
05
14
03
12
01
0%
1&
0'
1(
0)
1P
0M
1J
0G
#200000
0#
08
09
#212500
1#
18
19
1Q
0N
1K
0H
1R
0O
1L
0I
04
13
02
11
1%
0&
1'
0(
0P
1M
0J
#225000
0#
08
09
#237500
1#
18
19
0Q
1N
0K
0R
1O
0L
03
12
01
0%
1&
0'
1S
1P
0M
10
1$
0D
#250000
0#
08
09
#262500
1#
18
19
1Q
0N
0E
1R
0O
1F
15
02
11
1%
0&
1)
0P
1G
#275000
0#
08
09
#287500
1#
18
19
0Q
1H
0R
1I
14
01
0%
1(
1J
#300000
0#
08
09
#312500
1#
18
19
1K
1L
13
1'
0S
1M
00
0$
1D
#325000
0#
08
09
#337500
1#
18
19
1N
1E
1O
0F
05
12
1&
0)
1S
1P
0G
10
1$
0D
#350000
0#
08
09
#362500
1#
18
19
1Q
0H
0E
1R
0I
1F
15
04
11
1%
0(
1)
0J
1G
#375000
0#
08
09
#387500
1#
18
19
0K
1H
0L
1I
14
03
0'
1(
0M
1J
#400000
0#
08
09
#412500
1#
18
19
0N
1K
0O
1L
13
02
0&
1'
0P
1M
#425000
0#
08
09
#437500
1#
18
19
0Q
1N
0R
1O
12
01
0%
1&
1P
#450000
0#
08
09
#462500
1#
18
19
1Q
1R
11
1%
0S
00
0$
1D
#475000
0#
08
09
#487500
1#
18
19
1E
0F
05
0)
0G
#500000
0#
08
09
#512500
1#
18
19
0H
0I
04
0(
1S
0J
10
1$
0D
#525000
0#
08
09
#537500
1#
18
19
0K
0E
0L
1F
15
03
0'
1)
0S
0M
1G
00
0$
1D
#550000
0#
08
09
#562500
1#
18
19
0N
1H
1E
0O
1I
0F
05
14
02
0&
1(
0)
0P
1J
0G
#575000
0#
08
09
#587500
1#
18
19
0Q
1K
0H
0R
1L
0I
04
13
01
0%
1'
0(
1S
1M
0J
10
1$
0D
#600000
0#
08
09
#612500
1#
18
19
1N
0K
0E
1O
0L
1F
15
03
12
1&
0'
1)
1P
0M
1G
#625000
0#
08
09
#637500
1#
18
19
1Q
0N
1H
1R
0O
1I
14
02
11
1%
0&
1(
0S
0P
1J
00
0$
1D
#650000
0#
08
09
#662500
1#
18
19
0Q
1K
1E
0R
1L
0F
05
13
01
0%
1'
0)
1M
0G
#675000
0#
08
09
#687500
1#
18
19
1N
0H
1O
0I
04
12
1&
0(
1P
0J
#700000
0#
08
09
#712500
1#
18
19
1Q
0K
1R
0L
03
11
1%
0'
0M
#725000
0#
08
09
#737500
1#
18
19
0N
0O
02
0&
1S
0P
10
1$
0D
#750000
0#
08
09
#762500
1#
18
19
0Q
0E
0R
1F
15
01
0%
1)
0S
1G
00
0$
1D
#775000
0#
08
09
#787500
1#
18
19
1H
1E
1I
0F
05
14
1(
0)
1S
1J
0G
10
1$
0D
#800000
0#
08
09
#812500
1#
18
19
1K
0H
0E
1L
0I
1F
15
04
13
1'
0(
1)
1M
0J
1G
#825000
0#
08
09
#837500
1#
18
19
1N
0K
1H
1O
0L
1I
14
03
12
1&
0'
1(
0S
1P
0M
1J
00
0$
1D
#850000
0#
08
09
#862500
1#
18
19
1Q
0N
1K
1E
1R
0O
1L
0F
05
13
02
11
1%
0&
1'
0)
1S
0P
1M
0G
10
1$
0D
#875000
0#
08
09
#887500
1#
18
19
0Q
1N
0H
0E
0R
1O
0I
1F
15
04
12
01
0%
1&
0(
1)
0S
1P
0J
1G
00
0$
1D
#900000
0#
08
09
#912500
1#
18
19
1Q
0K
1H
1E
1R
0L
1I
0F
05
14
03
11
1%
0'
1(
0)
1S
0M
1J
0G
10
1$
0D
#925000
0#
08
09
#937500
1#
18
19
0N
1K
0H
0E
0O
1L
0I
1F
15
04
13
02
0&
1'
0(
1)
0S
0P
1M
0J
1G
00
0$
1D
#950000
0#
08
09
#962500
1#
18
19
0Q
1N
0K
1H
1E
0R
1O
0L
1I
0F
05
14
03
12
01
0%
1&
0'
1(
0)
1P
0M
1J
0G
#975000
0#
08
09
#987500
1#
18
19
1Q
0N
1K
0H
1R
0O
1L
0I
04
13
02
11
1%
0&
1'
0(
0P
1M
0J
