simulation/qsim/Mgenerator.msim.vcd
$comment
	File created using the following command:
		vcd file Mgenerator.msim.vcd -direction
$end
$date
	Sat Sep 26 11:40:06 2020
$end
$version
	ModelSim Version 10.5b
$end
$timescale
	1ps
$end

$scope module MultiChannelMGenerator_vlg_vec_tst $end
$var reg 1 ! ALOAD $end
$var reg 5 " ASDATA [4:0] $end
$var reg 1 # Clock $end
$var wire 1 $ Out1 $end
$var wire 1 % Out2 $end
$var wire 1 & State [4] $end
$var wire 1 ' State [3] $end
$var wire 1 ( State [2] $end
$var wire 1 ) State [1] $end
$var wire 1 * State [0] $end

$scope module i1 $end
$var wire 1 + gnd $end
$var wire 1 , vcc $end
$var wire 1 - unknown $end
$var tri1 1 . devclrn $end
$var tri1 1 / devpor $end
$var tri1 1 0 devoe $end
$var wire 1 1 Out1~output_o $end
$var wire 1 2 State[4]~output_o $end
$var wire 1 3 State[3]~output_o $end
$var wire 1 4 State[2]~output_o $end
$var wire 1 5 State[1]~output_o $end
$var wire 1 6 State[0]~output_o $end
$var wire 1 7 Out2~output_o $end
$var wire 1 8 ALOAD~input_o $end
$var wire 1 9 ASDATA[4]~input_o $end
$var wire 1 : Clock~input_o $end
$var wire 1 ; Clock~inputclkctrl_outclk $end
$var wire 1 < ALOAD~inputclkctrl_outclk $end
$var wire 1 = inst13~1_combout $end
$var wire 1 > ASDATA[2]~input_o $end
$var wire 1 ? inst11~1_combout $end
$var wire 1 @ ASDATA[0]~input_o $end
$var wire 1 A inst1~1_combout $end
$var wire 1 B ASDATA[1]~input_o $end
$var wire 1 C inst10~1_combout $end
$var wire 1 D ASDATA[3]~input_o $end
$var wire 1 E inst12~1_combout $end
$var wire 1 F inst12~3_combout $end
$var wire 1 G inst12~_emulated_q $end
$var wire 1 H inst12~2_combout $end
$var wire 1 I inst10~3_combout $end
$var wire 1 J inst10~_emulated_q $end
$var wire 1 K inst10~2_combout $end
$var wire 1 L inst1~3_combout $end
$var wire 1 M inst1~_emulated_q $end
$var wire 1 N inst1~2_combout $end
$var wire 1 O inst11~3_combout $end
$var wire 1 P inst11~_emulated_q $end
$var wire 1 Q inst11~2_combout $end
$var wire 1 R inst13~3_combout $end
$var wire 1 S inst13~_emulated_q $end
$var wire 1 T inst13~2_combout $end
$var wire 1 U inst3~0_combout $end
$var wire 1 V inst7~0_combout $end
$upscope $end
$upscope $end
$enddefinitions $end
#0
$dumpvars
1!
b1 "
0#
0$
1%
1*
0)
0(
0'
0&
0+
1,
x-
1.
1/
10
01
02
03
04
05
16
17
18
09
0:
0;
1<
0=
0>
0?
1@
1A
0B
0C
0D
0E
0F
0G
0H
1I
0J
0K
1L
0M
1N
1O
0P
0Q
0R
0S
0T
0U
1V
$end
#10000
0!
b0 "
1#
08
0@
1:
0<
1;
1P
1M
1J
1Q
0N
1K
15
06
0*
1)
1R
0O
0I
1U
0L
1F
11
1$
1I
#20000
0#
0:
0;
#30000
1#
1:
1;
1S
0P
0M
1G
0Q
1T
1N
1H
13
16
12
1&
1*
1'
0R
0V
0U
1L
1O
01
07
0%
0$
0I
#40000
0#
0:
0;
#50000
1#
1:
1;
0S
1P
1M
0J
1Q
0T
0N
0K
05
06
02
0&
0*
0)
1R
1V
0O
1I
0F
17
1%
#60000
0#
0:
0;
#70000
1#
1:
1;
1S
0P
1J
0G
0Q
1T
1K
0H
03
15
12
1&
1)
0'
0R
0V
1F
0I
07
0%
#80000
0#
0:
0;
#90000
1#
1:
1;
0S
0J
1G
0T
0K
1H
13
05
02
0&
0)
1'
1V
0F
1I
17
1%
#100000
0#
0:
0;
#110000
1#
1:
1;
1J
0G
1K
0H
03
15
1)
0'
1U
0L
1F
0I
11
1$
1I
#120000
0#
0:
0;
#130000
1#
1:
1;
0M
1G
1N
1H
13
16
1*
1'
1O
#140000
0#
0:
0;
#150000
1#
1:
1;
1P
1Q
1R
#160000
0#
0:
0;
#170000
1#
1:
1;
1S
1T
12
1&
0V
0U
1L
01
07
0%
0$
0I
#180000
0#
0:
0;
#190000
1#
1:
1;
1M
0J
0N
0K
05
06
0*
0)
0O
1I
1U
0L
0F
11
1$
0I
#200000
0#
0:
0;
#210000
1#
1:
1;
0P
0M
0G
0Q
1N
0H
03
16
1*
0'
0R
1O
#220000
0#
0:
0;
#230000
1#
1:
1;
0S
1P
1Q
0T
02
0&
1R
1V
0U
1L
01
17
1%
0$
1I
#240000
0#
0:
0;
#250000
1#
1:
1;
1S
1M
1J
1T
0N
1K
15
06
12
1&
0*
1)
0V
0O
0I
1F
07
0%
#260000
0#
0:
0;
#270000
1#
1:
1;
0P
0J
1G
0Q
0K
1H
13
05
0)
1'
0R
1U
0L
0F
1I
11
1$
0I
#280000
0#
0:
0;
#290000
1#
1:
1;
0S
0M
0G
0T
1N
0H
03
16
02
0&
1*
0'
1V
0U
1L
1O
01
17
1%
0$
1I
#300000
0#
0:
0;
#310000
1#
1:
1;
1P
1M
1J
1Q
0N
1K
15
06
0*
1)
1R
0O
0I
1U
0L
1F
11
1$
1I
#320000
0#
0:
0;
#330000
1#
1:
1;
1S
0P
0M
1G
0Q
1T
1N
1H
13
16
12
1&
1*
1'
0R
0V
0U
1L
1O
01
07
0%
0$
0I
#340000
0#
0:
0;
#350000
1#
1:
1;
0S
1P
1M
0J
1Q
0T
0N
0K
05
06
02
0&
0*
0)
1R
1V
0O
1I
0F
17
1%
#360000
0#
0:
0;
#370000
1#
1:
1;
1S
0P
1J
0G
0Q
1T
1K
0H
03
15
12
1&
1)
0'
0R
0V
1F
0I
07
0%
#380000
0#
0:
0;
#390000
1#
1:
1;
0S
0J
1G
0T
0K
1H
13
05
02
0&
0)
1'
1V
0F
1I
17
1%
#400000
0#
0:
0;
#410000
1#
1:
1;
1J
0G
1K
0H
03
15
1)
0'
1U
0L
1F
0I
11
1$
1I
#420000
0#
0:
0;
#430000
1#
1:
1;
0M
1G
1N
1H
13
16
1*
1'
1O
#440000
0#
0:
0;
#450000
1#
1:
1;
1P
1Q
1R
#460000
0#
0:
0;
#470000
1#
1:
1;
1S
1T
12
1&
0V
0U
1L
01
07
0%
0$
0I
#480000
0#
0:
0;
#490000
1#
1:
1;
1M
0J
0N
0K
05
06
0*
0)
0O
1I
1U
0L
0F
11
1$
0I
#500000
0#
0:
0;
#510000
1#
1:
1;
0P
0M
0G
0Q
1N
0H
03
16
1*
0'
0R
1O
#520000
0#
0:
0;
#530000
1#
1:
1;
0S
1P
1Q
0T
02
0&
1R
1V
0U
1L
01
17
1%
0$
1I
#540000
0#
0:
0;
#550000
1#
1:
1;
1S
1M
1J
1T
0N
1K
15
06
12
1&
0*
1)
0V
0O
0I
1F
07
0%
#560000
0#
0:
0;
#570000
1#
1:
1;
0P
0J
1G
0Q
0K
1H
13
05
0)
1'
0R
1U
0L
0F
1I
11
1$
0I
#580000
0#
0:
0;
#590000
1#
1:
1;
0S
0M
0G
0T
1N
0H
03
16
02
0&
1*
0'
1V
0U
1L
1O
01
17
1%
0$
1I
#600000
0#
0:
0;
#610000
1#
1:
1;
1P
1M
1J
1Q
0N
1K
15
06
0*
1)
1R
0O
0I
1U
0L
1F
11
1$
1I
#620000
0#
0:
0;
#630000
1#
1:
1;
1S
0P
0M
1G
0Q
1T
1N
1H
13
16
12
1&
1*
1'
0R
0V
0U
1L
1O
01
07
0%
0$
0I
#640000
0#
0:
0;
#650000
1#
1:
1;
0S
1P
1M
0J
1Q
0T
0N
0K
05
06
02
0&
0*
0)
1R
1V
0O
1I
0F
17
1%
#660000
0#
0:
0;
#670000
1#
1:
1;
1S
0P
1J
0G
0Q
1T
1K
0H
03
15
12
1&
1)
0'
0R
0V
1F
0I
07
0%
#680000
0#
0:
0;
#690000
1#
1:
1;
0S
0J
1G
0T
0K
1H
13
05
02
0&
0)
1'
1V
0F
1I
17
1%
#700000
0#
0:
0;
#710000
1#
1:
1;
1J
0G
1K
0H
03
15
1)
0'
1U
0L
1F
0I
11
1$
1I
#720000
0#
0:
0;
#730000
1#
1:
1;
0M
1G
1N
1H
13
16
1*
1'
1O
#740000
0#
0:
0;
#750000
1#
1:
1;
1P
1Q
1R
#760000
0#
0:
0;
#770000
1#
1:
1;
1S
1T
12
1&
0V
0U
1L
01
07
0%
0$
0I
#780000
0#
0:
0;
#790000
1#
1:
1;
1M
0J
0N
0K
05
06
0*
0)
0O
1I
1U
0L
0F
11
1$
0I
#800000
0#
0:
0;
#810000
1#
1:
1;
0P
0M
0G
0Q
1N
0H
03
16
1*
0'
0R
1O
#820000
0#
0:
0;
#830000
1#
1:
1;
0S
1P
1Q
0T
02
0&
1R
1V
0U
1L
01
17
1%
0$
1I
#840000
0#
0:
0;
#850000
1#
1:
1;
1S
1M
1J
1T
0N
1K
15
06
12
1&
0*
1)
0V
0O
0I
1F
07
0%
#860000
0#
0:
0;
#870000
1#
1:
1;
0P
0J
1G
0Q
0K
1H
13
05
0)
1'
0R
1U
0L
0F
1I
11
1$
0I
#880000
0#
0:
0;
#890000
1#
1:
1;
0S
0M
0G
0T
1N
0H
03
16
02
0&
1*
0'
1V
0U
1L
1O
01
17
1%
0$
1I
#900000
0#
0:
0;
#910000
1#
1:
1;
1P
1M
1J
1Q
0N
1K
15
06
0*
1)
1R
0O
0I
1U
0L
1F
11
1$
1I
#920000
0#
0:
0;
#930000
1#
1:
1;
1S
0P
0M
1G
0Q
1T
1N
1H
13
16
12
1&
1*
1'
0R
0V
0U
1L
1O
01
07
0%
0$
0I
#940000
0#
0:
0;
#950000
1#
1:
1;
0S
1P
1M
0J
1Q
0T
0N
0K
05
06
02
0&
0*
0)
1R
1V
0O
1I
0F
17
1%
#960000
0#
0:
0;
#970000
1#
1:
1;
1S
0P
1J
0G
0Q
1T
1K
0H
03
15
12
1&
1)
0'
0R
0V
1F
0I
07
0%
#980000
0#
0:
0;
#990000
1#
1:
1;
0S
0J
1G
0T
0K
1H
13
05
02
0&
0)
1'
1V
0F
1I
17
1%
