simulation/qsim/Mgenerator.msim.vcd
$comment
	File created using the following command:
		vcd file MGenerator.msim.vcd -direction
$end
$date
	Sat Sep 26 11:34:47 2020
$end
$version
	ModelSim Version 10.5b
$end
$timescale
	1ps
$end

$scope module Multi_MGenerator_vlg_vec_tst $end
$var reg 1 ! ALOAD $end
$var reg 5 " ASDATA [4:0] $end
$var reg 1 # CLOCK $end
$var wire 1 $ Out1 $end
$var wire 1 % Out2 $end
$var wire 1 & STATE [4] $end
$var wire 1 ' STATE [3] $end
$var wire 1 ( STATE [2] $end
$var wire 1 ) STATE [1] $end
$var wire 1 * STATE [0] $end

$scope module i1 $end
$var wire 1 + gnd $end
$var wire 1 , vcc $end
$var wire 1 - unknown $end
$var tri1 1 . devclrn $end
$var tri1 1 / devpor $end
$var tri1 1 0 devoe $end
$var wire 1 1 Out1~output_o $end
$var wire 1 2 STATE[4]~output_o $end
$var wire 1 3 STATE[3]~output_o $end
$var wire 1 4 STATE[2]~output_o $end
$var wire 1 5 STATE[1]~output_o $end
$var wire 1 6 STATE[0]~output_o $end
$var wire 1 7 Out2~output_o $end
$var wire 1 8 ALOAD~input_o $end
$var wire 1 9 ASDATA[2]~input_o $end
$var wire 1 : ALOAD~inputclkctrl_outclk $end
$var wire 1 ; inst10~1_combout $end
$var wire 1 < CLOCK~input_o $end
$var wire 1 = CLOCK~inputclkctrl_outclk $end
$var wire 1 > ASDATA[0]~input_o $end
$var wire 1 ? inst12~1_combout $end
$var wire 1 @ inst12~3_combout $end
$var wire 1 A inst12~_emulated_q $end
$var wire 1 B inst12~2_combout $end
$var wire 1 C inst10~3_combout $end
$var wire 1 D inst10~_emulated_q $end
$var wire 1 E inst10~2_combout $end
$var wire 1 F ASDATA[1]~input_o $end
$var wire 1 G inst11~1_combout $end
$var wire 1 H ASDATA[4]~input_o $end
$var wire 1 I inst2~1_combout $end
$var wire 1 J inst2~3_combout $end
$var wire 1 K inst2~_emulated_q $end
$var wire 1 L inst2~2_combout $end
$var wire 1 M ASDATA[3]~input_o $end
$var wire 1 N inst1~1_combout $end
$var wire 1 O inst1~3_combout $end
$var wire 1 P inst1~_emulated_q $end
$var wire 1 Q inst1~2_combout $end
$var wire 1 R inst9~combout $end
$var wire 1 S inst11~3_combout $end
$var wire 1 T inst11~_emulated_q $end
$var wire 1 U inst11~2_combout $end
$var wire 1 V inst6~combout $end
$upscope $end
$upscope $end
$enddefinitions $end
#0
$dumpvars
0!
b0 "
0#
x$
x%
x*
x)
x(
x'
x&
0+
1,
x-
1.
1/
10
x1
x2
x3
x4
x5
x6
x7
08
09
0:
x;
0<
0=
0>
x?
x@
0A
xB
xC
0D
xE
0F
xG
0H
xI
xJ
0K
xL
0M
xN
xO
0P
xQ
xR
xS
0T
xU
xV
$end
#10000
1!
b1 "
18
1>
1:
1?
0N
0I
0G
0;
0U
0Q
0L
0E
1B
16
04
02
03
05
0)
0'
0&
0(
1*
0O
0J
1C
1V
0R
07
11
1$
0%
0@
0S
#12500
1#
1<
1=
#20000
0!
b0 "
08
0>
0:
#25000
0#
0<
0=
#37500
1#
1<
1=
1D
1E
14
1(
0V
1R
1J
17
01
0$
1%
1@
1S
#50000
0#
0<
0=
#62500
1#
1<
1=
1T
1K
1A
1U
1L
0B
06
12
15
1)
1&
0*
1O
0C
#75000
0#
0<
0=
#87500
1#
1<
1=
1P
0D
1Q
0E
04
13
1'
0(
0J
#100000
0#
0<
0=
#112500
1#
1<
1=
0K
0L
02
0&
0R
07
0%
0S
#125000
0#
0<
0=
#137500
1#
1<
1=
0T
0U
05
0)
1V
1R
0O
17
11
1$
1%
0@
1S
#150000
0#
0<
0=
#162500
1#
1<
1=
1T
0P
0A
1U
0Q
1B
16
03
15
1)
0'
1*
0V
1O
1C
01
0$
1@
#175000
0#
0<
0=
#187500
1#
1<
1=
1P
1D
1A
1Q
1E
0B
06
14
13
1'
1(
0*
1V
1J
0C
11
1$
0@
#200000
0#
0<
0=
#212500
1#
1<
1=
1K
0D
0A
1L
0E
1B
16
04
12
1&
0(
1*
0J
1C
#225000
0#
0<
0=
#237500
1#
1<
1=
0K
1D
0L
1E
14
02
0&
1(
0V
1J
01
0$
1@
#250000
0#
0<
0=
#262500
1#
1<
1=
1K
1A
1L
0B
06
12
1&
0*
0R
1V
0C
11
07
0%
1$
0S
0@
#275000
0#
0<
0=
#287500
1#
1<
1=
0T
0D
0A
0U
0E
1B
16
04
05
0)
0(
1*
0V
0O
0J
1C
01
0$
1@
#300000
0#
0<
0=
#312500
1#
1<
1=
0P
0K
1D
1A
0Q
0L
1E
0B
06
14
02
03
0'
0&
1(
0*
1V
1R
1J
0C
17
11
1$
1%
0@
1S
#325000
0#
0<
0=
#337500
1#
1<
1=
1T
1K
0D
0A
1U
1L
0E
1B
16
04
12
15
1)
1&
0(
1*
0V
0R
1O
0J
1C
07
01
0$
0%
1@
0S
#350000
0#
0<
0=
#362500
1#
1<
1=
0T
1P
0K
1D
1A
0U
1Q
0L
1E
0B
06
14
02
13
05
0)
1'
0&
1(
0*
0O
1J
0C
#375000
0#
0<
0=
#387500
1#
1<
1=
0P
1K
0D
0Q
1L
0E
04
12
03
0'
1&
0(
1R
0J
17
1%
1S
#400000
0#
0<
0=
#412500
1#
1<
1=
1T
0K
1U
0L
02
15
1)
0&
1V
1O
11
1$
0@
#425000
0#
0<
0=
#437500
1#
1<
1=
1P
0A
1Q
1B
16
13
1'
1*
0R
1C
07
0%
0S
#450000
0#
0<
0=
#462500
1#
1<
1=
0T
1D
0U
1E
14
05
0)
1(
0O
1J
#475000
0#
0<
0=
#487500
1#
1<
1=
0P
1K
0Q
1L
12
03
0'
1&
0V
01
0$
1@
#500000
0#
0<
0=
#512500
1#
1<
1=
1A
0B
06
0*
1V
0C
11
1$
0@
#525000
0#
0<
0=
#537500
1#
1<
1=
0D
0A
0E
1B
16
04
0(
1*
1R
0J
1C
17
1%
1S
#550000
0#
0<
0=
#562500
1#
1<
1=
1T
0K
1D
1U
0L
1E
14
02
15
1)
0&
1(
0R
1O
1J
07
0%
0S
#575000
0#
0<
0=
#587500
1#
1<
1=
0T
1P
1K
0U
1Q
1L
12
13
05
0)
1'
1&
1R
0O
17
1%
1S
#600000
0#
0<
0=
#612500
1#
1<
1=
1T
0P
1U
0Q
03
15
1)
0'
1O
#625000
0#
0<
0=
#637500
1#
1<
1=
1P
1Q
13
1'
0V
0R
07
01
0$
0%
1@
0S
#650000
0#
0<
0=
#662500
1#
1<
1=
0T
1A
0U
0B
06
05
0)
0*
1R
0O
0C
17
1%
1S
#675000
0#
0<
0=
#687500
1#
1<
1=
1T
0P
0D
1U
0Q
0E
04
03
15
1)
0'
0(
1V
0R
1O
0J
07
11
1$
0%
0@
0S
#700000
0#
0<
0=
#712500
1#
1<
1=
0T
1P
0K
0A
0U
1Q
0L
1B
16
02
13
05
0)
1'
0&
1*
0V
1R
0O
1C
17
01
0$
1%
1@
1S
#725000
0#
0<
0=
#737500
1#
1<
1=
1T
0P
1D
1A
1U
0Q
1E
0B
06
14
03
15
1)
0'
1(
0*
0R
1O
1J
0C
07
0%
0S
#750000
0#
0<
0=
#762500
1#
1<
1=
0T
1P
1K
0D
0U
1Q
1L
0E
04
12
13
05
0)
1'
1&
0(
1V
0O
0J
11
1$
0@
#775000
0#
0<
0=
#787500
1#
1<
1=
0P
0K
0A
0Q
0L
1B
16
02
03
0'
0&
1*
1C
#800000
0#
0<
0=
#812500
1#
1<
1=
1D
1E
14
1(
0V
1R
1J
17
01
0$
1%
1@
1S
#825000
0#
0<
0=
#837500
1#
1<
1=
1T
1K
1A
1U
1L
0B
06
12
15
1)
1&
0*
1O
0C
#850000
0#
0<
0=
#862500
1#
1<
1=
1P
0D
1Q
0E
04
13
1'
0(
0J
#875000
0#
0<
0=
#887500
1#
1<
1=
0K
0L
02
0&
0R
07
0%
0S
#900000
0#
0<
0=
#912500
1#
1<
1=
0T
0U
05
0)
1V
1R
0O
17
11
1$
1%
0@
1S
#925000
0#
0<
0=
#937500
1#
1<
1=
1T
0P
0A
1U
0Q
1B
16
03
15
1)
0'
1*
0V
1O
1C
01
0$
1@
#950000
0#
0<
0=
#962500
1#
1<
1=
1P
1D
1A
1Q
1E
0B
06
14
13
1'
1(
0*
1V
1J
0C
11
1$
0@
#975000
0#
0<
0=
#987500
1#
1<
1=
1K
0D
0A
1L
0E
1B
16
04
12
1&
0(
1*
0J
1C
