simulation/qsim/Mgenerator.msim.vcd
$comment
	File created using the following command:
		vcd file Mgenerator.msim.vcd -direction
$end
$date
	Fri Oct 02 12:28:37 2020
$end
$version
	ModelSim Version 10.5b
$end
$timescale
	1ps
$end

$scope module deBruijn_vlg_vec_tst $end
$var reg 1 ! ALOAD $end
$var reg 5 " ASDATA [4:0] $end
$var reg 1 # Clock $end
$var wire 1 $ Out $end
$var wire 1 % State [4] $end
$var wire 1 & State [3] $end
$var wire 1 ' State [2] $end
$var wire 1 ( State [1] $end
$var wire 1 ) State [0] $end

$scope module i1 $end
$var wire 1 * gnd $end
$var wire 1 + vcc $end
$var wire 1 , unknown $end
$var tri1 1 - devclrn $end
$var tri1 1 . devpor $end
$var tri1 1 / devoe $end
$var wire 1 0 Out~output_o $end
$var wire 1 1 State[4]~output_o $end
$var wire 1 2 State[3]~output_o $end
$var wire 1 3 State[2]~output_o $end
$var wire 1 4 State[1]~output_o $end
$var wire 1 5 State[0]~output_o $end
$var wire 1 6 ALOAD~input_o $end
$var wire 1 7 ASDATA[3]~input_o $end
$var wire 1 8 Clock~input_o $end
$var wire 1 9 Clock~inputclkctrl_outclk $end
$var wire 1 : ALOAD~inputclkctrl_outclk $end
$var wire 1 ; inst12~1_combout $end
$var wire 1 < ASDATA[1]~input_o $end
$var wire 1 = inst10~1_combout $end
$var wire 1 > ASDATA[0]~input_o $end
$var wire 1 ? inst1~1_combout $end
$var wire 1 @ inst1~3_combout $end
$var wire 1 A inst1~_emulated_q $end
$var wire 1 B inst1~2_combout $end
$var wire 1 C inst10~3_combout $end
$var wire 1 D inst10~_emulated_q $end
$var wire 1 E inst10~2_combout $end
$var wire 1 F ASDATA[2]~input_o $end
$var wire 1 G inst11~1_combout $end
$var wire 1 H inst11~3_combout $end
$var wire 1 I inst11~_emulated_q $end
$var wire 1 J inst11~2_combout $end
$var wire 1 K inst12~3_combout $end
$var wire 1 L inst12~_emulated_q $end
$var wire 1 M inst12~2_combout $end
$var wire 1 N inst2~0_combout $end
$var wire 1 O ASDATA[4]~input_o $end
$var wire 1 P inst13~1_combout $end
$var wire 1 Q inst13~3_combout $end
$var wire 1 R inst13~_emulated_q $end
$var wire 1 S inst13~2_combout $end
$var wire 1 T inst5~combout $end
$upscope $end
$upscope $end
$enddefinitions $end
#0
$dumpvars
1!
b1 "
0#
0$
1)
0(
0'
0&
0%
0*
1+
x,
1-
1.
1/
00
01
02
03
04
15
16
07
08
09
1:
0;
0<
0=
1>
1?
1@
0A
1B
1C
0D
0E
0F
0G
0H
0I
0J
0K
0L
0M
0N
0O
0P
0Q
0R
0S
1T
$end
#10000
0!
b0 "
1#
06
0>
18
0:
19
1D
1A
1E
0B
05
14
0T
1(
0)
1H
0C
10
1$
0@
#20000
0#
08
09
#30000
1#
18
19
1I
0D
0A
1J
0E
1B
15
04
13
1'
0(
1)
1K
0H
1C
#40000
0#
08
09
#50000
1#
18
19
1L
0I
1D
1M
0J
1E
14
03
12
1T
1&
0'
1(
1Q
0K
1H
00
0$
1@
#60000
0#
08
09
#70000
1#
18
19
1R
0L
1I
1A
1S
0M
1J
0B
05
13
02
11
0T
1%
0&
1'
0)
0Q
1K
0C
10
1$
0@
#80000
0#
08
09
#90000
1#
18
19
0R
1L
0D
0A
0S
1M
0E
1B
15
04
12
01
0%
1&
0(
1)
1Q
0H
1C
#100000
0#
08
09
#110000
1#
18
19
1R
0I
1D
1S
0J
1E
14
03
11
1%
0'
1(
0K
1H
#120000
0#
08
09
#130000
1#
18
19
0L
1I
0M
1J
13
02
1T
0&
1'
0Q
1K
00
0$
1@
#140000
0#
08
09
#150000
1#
18
19
0R
1L
1A
0S
1M
0B
05
12
01
0%
1&
0)
1Q
0C
#160000
0#
08
09
#170000
1#
18
19
1R
0D
1S
0E
04
11
0T
1%
0(
0H
10
1$
0@
#180000
0#
08
09
#190000
1#
18
19
0I
0A
0J
1B
15
03
0'
1)
0K
1C
#200000
0#
08
09
#210000
1#
18
19
0L
1D
0M
1E
14
02
0&
1(
0Q
1H
#220000
0#
08
09
#230000
1#
18
19
0R
1I
0S
1J
13
01
0%
1'
1K
#240000
0#
08
09
#250000
1#
18
19
1L
1M
12
1N
1&
1Q
1T
00
0$
1@
#260000
0#
08
09
#270000
1#
18
19
1R
1A
1S
0B
05
11
0N
1%
0)
0C
0T
10
1$
0@
#280000
0#
08
09
#290000
1#
18
19
0D
0A
0E
1B
15
04
1T
0(
1)
0H
1C
00
0$
1@
#300000
0#
08
09
#310000
1#
18
19
0I
1D
1A
0J
1E
0B
05
14
03
0'
1(
0)
0K
1H
0C
#320000
0#
08
09
#330000
1#
18
19
0L
1I
0D
0M
1J
0E
04
13
02
0T
0&
1'
0(
0Q
1K
0H
10
1$
0@
#340000
0#
08
09
#350000
1#
18
19
0R
1L
0I
0A
0S
1M
0J
1B
15
03
12
01
1T
0%
1&
0'
1)
1Q
0K
1C
00
0$
1@
#360000
0#
08
09
#370000
1#
18
19
1R
0L
1D
1A
1S
0M
1E
0B
05
14
02
11
1%
0&
1(
0)
0Q
1H
0C
#380000
0#
08
09
#390000
1#
18
19
0R
1I
0D
0S
1J
0E
04
13
01
0%
1'
0(
1K
0H
#400000
0#
08
09
#410000
1#
18
19
1L
0I
1M
0J
03
12
0T
1&
0'
1Q
0K
10
1$
0@
#420000
0#
08
09
#430000
1#
18
19
1R
0L
0A
1S
0M
1B
15
02
11
1%
0&
1)
0Q
1C
#440000
0#
08
09
#450000
1#
18
19
0R
1D
0S
1E
14
01
1T
0%
1(
1H
00
0$
1@
#460000
0#
08
09
#470000
1#
18
19
1I
1A
1J
0B
05
13
1'
0)
1K
0C
#480000
0#
08
09
#490000
1#
18
19
1L
0D
1M
0E
04
12
1&
0(
1Q
0H
#500000
0#
08
09
#510000
1#
18
19
1R
0I
1S
0J
03
11
1%
0'
0K
#520000
0#
08
09
#530000
1#
18
19
0L
0M
02
0&
0Q
#540000
0#
08
09
#550000
1#
18
19
0R
0S
01
0T
0%
10
1$
0@
#560000
0#
08
09
#570000
1#
18
19
0A
1B
15
1T
1)
1C
00
0$
1@
#580000
0#
08
09
#590000
1#
18
19
1D
1A
1E
0B
05
14
0T
1(
0)
1H
0C
10
1$
0@
#600000
0#
08
09
#610000
1#
18
19
1I
0D
0A
1J
0E
1B
15
04
13
1'
0(
1)
1K
0H
1C
#620000
0#
08
09
#630000
1#
18
19
1L
0I
1D
1M
0J
1E
14
03
12
1T
1&
0'
1(
1Q
0K
1H
00
0$
1@
#640000
0#
08
09
#650000
1#
18
19
1R
0L
1I
1A
1S
0M
1J
0B
05
13
02
11
0T
1%
0&
1'
0)
0Q
1K
0C
10
1$
0@
#660000
0#
08
09
#670000
1#
18
19
0R
1L
0D
0A
0S
1M
0E
1B
15
04
12
01
0%
1&
0(
1)
1Q
0H
1C
#680000
0#
08
09
#690000
1#
18
19
1R
0I
1D
1S
0J
1E
14
03
11
1%
0'
1(
0K
1H
#700000
0#
08
09
#710000
1#
18
19
0L
1I
0M
1J
13
02
1T
0&
1'
0Q
1K
00
0$
1@
#720000
0#
08
09
#730000
1#
18
19
0R
1L
1A
0S
1M
0B
05
12
01
0%
1&
0)
1Q
0C
#740000
0#
08
09
#750000
1#
18
19
1R
0D
1S
0E
04
11
0T
1%
0(
0H
10
1$
0@
#760000
0#
08
09
#770000
1#
18
19
0I
0A
0J
1B
15
03
0'
1)
0K
1C
#780000
0#
08
09
#790000
1#
18
19
0L
1D
0M
1E
14
02
0&
1(
0Q
1H
#800000
0#
08
09
#810000
1#
18
19
0R
1I
0S
1J
13
01
0%
1'
1K
#820000
0#
08
09
#830000
1#
18
19
1L
1M
12
1N
1&
1Q
1T
00
0$
1@
#840000
0#
08
09
#850000
1#
18
19
1R
1A
1S
0B
05
11
0N
1%
0)
0C
0T
10
1$
0@
#860000
0#
08
09
#870000
1#
18
19
0D
0A
0E
1B
15
04
1T
0(
1)
0H
1C
00
0$
1@
#880000
0#
08
09
#890000
1#
18
19
0I
1D
1A
0J
1E
0B
05
14
03
0'
1(
0)
0K
1H
0C
#900000
0#
08
09
#910000
1#
18
19
0L
1I
0D
0M
1J
0E
04
13
02
0T
0&
1'
0(
0Q
1K
0H
10
1$
0@
#920000
0#
08
09
#930000
1#
18
19
0R
1L
0I
0A
0S
1M
0J
1B
15
03
12
01
1T
0%
1&
0'
1)
1Q
0K
1C
00
0$
1@
#940000
0#
08
09
#950000
1#
18
19
1R
0L
1D
1A
1S
0M
1E
0B
05
14
02
11
1%
0&
1(
0)
0Q
1H
0C
#960000
0#
08
09
#970000
1#
18
19
0R
1I
0D
0S
1J
0E
04
13
01
0%
1'
0(
1K
0H
#980000
0#
08
09
#990000
1#
18
19
1L
0I
1M
0J
03
12
0T
1&
0'
1Q
0K
10
1$
0@
