simulation/qsim/Mgenerator.msim.vcd
$comment
	File created using the following command:
		vcd file Mgenerator.msim.vcd -direction
$end
$date
	Fri Sep 25 15:56:30 2020
$end
$version
	ModelSim Version 10.5b
$end
$timescale
	1ps
$end

$scope module MGenerator_vlg_vec_tst $end
$var reg 1 ! ALOAD $end
$var reg 5 " ASDATA [4:0] $end
$var reg 1 # Clock $end
$var wire 1 $ Out $end
$var wire 1 % State [4] $end
$var wire 1 & State [3] $end
$var wire 1 ' State [2] $end
$var wire 1 ( State [1] $end
$var wire 1 ) State [0] $end

$scope module i1 $end
$var wire 1 * gnd $end
$var wire 1 + vcc $end
$var wire 1 , unknown $end
$var tri1 1 - devclrn $end
$var tri1 1 . devpor $end
$var tri1 1 / devoe $end
$var wire 1 0 Out~output_o $end
$var wire 1 1 State[4]~output_o $end
$var wire 1 2 State[3]~output_o $end
$var wire 1 3 State[2]~output_o $end
$var wire 1 4 State[1]~output_o $end
$var wire 1 5 State[0]~output_o $end
$var wire 1 6 ASDATA[1]~input_o $end
$var wire 1 7 ALOAD~input_o $end
$var wire 1 8 Clock~input_o $end
$var wire 1 9 Clock~inputclkctrl_outclk $end
$var wire 1 : ALOAD~inputclkctrl_outclk $end
$var wire 1 ; inst10~1_combout $end
$var wire 1 < ASDATA[0]~input_o $end
$var wire 1 = inst1~1_combout $end
$var wire 1 > inst1~3_combout $end
$var wire 1 ? inst1~_emulated_q $end
$var wire 1 @ inst1~2_combout $end
$var wire 1 A inst10~3_combout $end
$var wire 1 B inst10~_emulated_q $end
$var wire 1 C inst10~2_combout $end
$var wire 1 D ASDATA[4]~input_o $end
$var wire 1 E inst13~1_combout $end
$var wire 1 F ASDATA[3]~input_o $end
$var wire 1 G ASDATA[2]~input_o $end
$var wire 1 H inst11~1_combout $end
$var wire 1 I inst11~3_combout $end
$var wire 1 J inst11~_emulated_q $end
$var wire 1 K inst11~2_combout $end
$var wire 1 L inst12~1_combout $end
$var wire 1 M inst12~3_combout $end
$var wire 1 N inst12~_emulated_q $end
$var wire 1 O inst12~2_combout $end
$var wire 1 P inst13~3_combout $end
$var wire 1 Q inst13~_emulated_q $end
$var wire 1 R inst13~2_combout $end
$var wire 1 S inst3~0_combout $end
$upscope $end
$upscope $end
$enddefinitions $end
#0
$dumpvars
1!
b1 "
0#
1$
1)
0(
0'
0&
0%
0*
1+
x,
1-
1.
1/
10
01
02
03
04
15
06
17
08
09
1:
0;
1<
1=
0>
0?
1@
1A
0B
0C
0D
0E
0F
0G
0H
0I
0J
0K
0L
0M
0N
0O
0P
0Q
0R
1S
$end
#10000
1#
18
19
#20000
0!
b0 "
0#
07
0<
08
0:
09
#30000
1#
18
19
1B
1C
14
1(
0S
1I
00
0$
1>
#40000
0#
08
09
#50000
1#
18
19
1J
1?
1K
0@
05
13
1'
0)
1M
1S
0A
10
1$
0>
#60000
0#
08
09
#70000
1#
18
19
1N
0B
0?
1O
0C
1@
15
04
12
1&
0(
1)
0S
1P
0I
1A
00
0$
1>
#80000
0#
08
09
#90000
1#
18
19
1Q
0J
1B
1?
1R
0K
1C
0@
05
14
03
11
1%
0'
1(
0)
1S
0M
1I
0A
10
1$
0>
#100000
0#
08
09
#110000
1#
18
19
0N
1J
0B
0?
0O
1K
0C
1@
15
04
13
02
0&
1'
0(
1)
0S
0P
1M
0I
1A
00
0$
1>
#120000
0#
08
09
#130000
1#
18
19
0Q
1N
0J
1B
1?
0R
1O
0K
1C
0@
05
14
03
12
01
0%
1&
0'
1(
0)
1P
0M
1I
0A
#140000
0#
08
09
#150000
1#
18
19
1Q
0N
1J
0B
1R
0O
1K
0C
04
13
02
11
1%
0&
1'
0(
1S
0P
1M
0I
10
1$
0>
#160000
0#
08
09
#170000
1#
18
19
0Q
1N
0J
0?
0R
1O
0K
1@
15
03
12
01
0%
1&
0'
1)
0S
1P
0M
1A
00
0$
1>
#180000
0#
08
09
#190000
1#
18
19
1Q
0N
1B
1?
1R
0O
1C
0@
05
14
02
11
1%
0&
1(
0)
0P
1I
0A
#200000
0#
08
09
#210000
1#
18
19
0Q
1J
0B
0R
1K
0C
04
13
01
0%
1'
0(
1M
0I
#220000
0#
08
09
#230000
1#
18
19
1N
0J
1O
0K
03
12
1&
0'
1S
1P
0M
10
1$
0>
#240000
0#
08
09
#250000
1#
18
19
1Q
0N
0?
1R
0O
1@
15
02
11
1%
0&
1)
0S
0P
1A
00
0$
1>
#260000
0#
08
09
#270000
1#
18
19
0Q
1B
1?
0R
1C
0@
05
14
01
0%
1(
0)
1S
1I
0A
10
1$
0>
#280000
0#
08
09
#290000
1#
18
19
1J
0B
0?
1K
0C
1@
15
04
13
1'
0(
1)
1M
0I
1A
#300000
0#
08
09
#310000
1#
18
19
1N
0J
1B
1O
0K
1C
14
03
12
1&
0'
1(
1P
0M
1I
#320000
0#
08
09
#330000
1#
18
19
1Q
0N
1J
1R
0O
1K
13
02
11
1%
0&
1'
0P
1M
#340000
0#
08
09
#350000
1#
18
19
0Q
1N
0R
1O
12
01
0%
1&
1P
#360000
0#
08
09
#370000
1#
18
19
1Q
1R
11
1%
0S
00
0$
1>
#380000
0#
08
09
#390000
1#
18
19
1?
0@
05
0)
1S
0A
10
1$
0>
#400000
0#
08
09
#410000
1#
18
19
0B
0?
0C
1@
15
04
0(
1)
0I
1A
#420000
0#
08
09
#430000
1#
18
19
0J
1B
0K
1C
14
03
0'
1(
0M
0S
1I
00
0$
1>
#440000
0#
08
09
#450000
1#
18
19
0N
1J
1?
0O
1K
0@
05
13
02
0&
1'
0)
0P
1M
0A
#460000
0#
08
09
#470000
1#
18
19
0Q
1N
0B
0R
1O
0C
04
12
01
0%
1&
0(
1S
1P
0I
10
1$
0>
#480000
0#
08
09
#490000
1#
18
19
1Q
0J
0?
1R
0K
1@
15
03
11
1%
0'
1)
0M
1A
#500000
0#
08
09
#510000
1#
18
19
0N
1B
0O
1C
14
02
0&
1(
0P
1I
#520000
0#
08
09
#530000
1#
18
19
0Q
1J
0R
1K
13
01
0%
1'
0S
1M
00
0$
1>
#540000
0#
08
09
#550000
1#
18
19
1N
1?
1O
0@
05
12
1&
0)
1P
0A
#560000
0#
08
09
#570000
1#
18
19
1Q
0B
1R
0C
04
11
1%
0(
0I
#580000
0#
08
09
#590000
1#
18
19
0J
0K
03
0'
0M
#600000
0#
08
09
#610000
1#
18
19
0N
0O
02
0&
1S
0P
10
1$
0>
#620000
0#
08
09
#630000
1#
18
19
0Q
0?
0R
1@
15
01
0%
1)
1A
#640000
0#
08
09
#650000
1#
18
19
1B
1C
14
1(
0S
1I
00
0$
1>
#660000
0#
08
09
#670000
1#
18
19
1J
1?
1K
0@
05
13
1'
0)
1M
1S
0A
10
1$
0>
#680000
0#
08
09
#690000
1#
18
19
1N
0B
0?
1O
0C
1@
15
04
12
1&
0(
1)
0S
1P
0I
1A
00
0$
1>
#700000
0#
08
09
#710000
1#
18
19
1Q
0J
1B
1?
1R
0K
1C
0@
05
14
03
11
1%
0'
1(
0)
1S
0M
1I
0A
10
1$
0>
#720000
0#
08
09
#730000
1#
18
19
0N
1J
0B
0?
0O
1K
0C
1@
15
04
13
02
0&
1'
0(
1)
0S
0P
1M
0I
1A
00
0$
1>
#740000
0#
08
09
#750000
1#
18
19
0Q
1N
0J
1B
1?
0R
1O
0K
1C
0@
05
14
03
12
01
0%
1&
0'
1(
0)
1P
0M
1I
0A
#760000
0#
08
09
#770000
1#
18
19
1Q
0N
1J
0B
1R
0O
1K
0C
04
13
02
11
1%
0&
1'
0(
1S
0P
1M
0I
10
1$
0>
#780000
0#
08
09
#790000
1#
18
19
0Q
1N
0J
0?
0R
1O
0K
1@
15
03
12
01
0%
1&
0'
1)
0S
1P
0M
1A
00
0$
1>
#800000
0#
08
09
#810000
1#
18
19
1Q
0N
1B
1?
1R
0O
1C
0@
05
14
02
11
1%
0&
1(
0)
0P
1I
0A
#820000
0#
08
09
#830000
1#
18
19
0Q
1J
0B
0R
1K
0C
04
13
01
0%
1'
0(
1M
0I
#840000
0#
08
09
#850000
1#
18
19
1N
0J
1O
0K
03
12
1&
0'
1S
1P
0M
10
1$
0>
#860000
0#
08
09
#870000
1#
18
19
1Q
0N
0?
1R
0O
1@
15
02
11
1%
0&
1)
0S
0P
1A
00
0$
1>
#880000
0#
08
09
#890000
1#
18
19
0Q
1B
1?
0R
1C
0@
05
14
01
0%
1(
0)
1S
1I
0A
10
1$
0>
#900000
0#
08
09
#910000
1#
18
19
1J
0B
0?
1K
0C
1@
15
04
13
1'
0(
1)
1M
0I
1A
#920000
0#
08
09
#930000
1#
18
19
1N
0J
1B
1O
0K
1C
14
03
12
1&
0'
1(
1P
0M
1I
#940000
0#
08
09
#950000
1#
18
19
1Q
0N
1J
1R
0O
1K
13
02
11
1%
0&
1'
0P
1M
#960000
0#
08
09
#970000
1#
18
19
0Q
1N
0R
1O
12
01
0%
1&
1P
#980000
0#
08
09
#990000
1#
18
19
1Q
1R
11
1%
0S
00
0$
1>
#1000000
0#
08
09
#1010000
1#
18
19
1?
0@
05
0)
1S
0A
10
1$
0>
#1020000
0#
08
09
#1030000
1#
18
19
0B
0?
0C
1@
15
04
0(
1)
0I
1A
#1040000
0#
08
09
#1050000
1#
18
19
0J
1B
0K
1C
14
03
0'
1(
0M
0S
1I
00
0$
1>
#1060000
0#
08
09
#1070000
1#
18
19
0N
1J
1?
0O
1K
0@
05
13
02
0&
1'
0)
0P
1M
0A
#1080000
0#
08
09
#1090000
1#
18
19
0Q
1N
0B
0R
1O
0C
04
12
01
0%
1&
0(
1S
1P
0I
10
1$
0>
#1100000
0#
08
09
#1110000
1#
18
19
1Q
0J
0?
1R
0K
1@
15
03
11
1%
0'
1)
0M
1A
#1120000
0#
08
09
#1130000
1#
18
19
0N
1B
0O
1C
14
02
0&
1(
0P
1I
#1140000
0#
08
09
#1150000
1#
18
19
0Q
1J
0R
1K
13
01
0%
1'
0S
1M
00
0$
1>
#1160000
0#
08
09
#1170000
1#
18
19
1N
1?
1O
0@
05
12
1&
0)
1P
0A
#1180000
0#
08
09
#1190000
1#
18
19
1Q
0B
1R
0C
04
11
1%
0(
0I
#1200000
0#
08
09
#1210000
1#
18
19
0J
0K
03
0'
0M
#1220000
0#
08
09
#1230000
1#
18
19
0N
0O
02
0&
1S
0P
10
1$
0>
#1240000
0#
08
09
#1250000
1#
18
19
0Q
0?
0R
1@
15
01
0%
1)
1A
#1260000
0#
08
09
#1270000
1#
18
19
1B
1C
14
1(
0S
1I
00
0$
1>
#1280000
0#
08
09
#1290000
1#
18
19
1J
1?
1K
0@
05
13
1'
0)
1M
1S
0A
10
1$
0>
#1300000
0#
08
09
#1310000
1#
18
19
1N
0B
0?
1O
0C
1@
15
04
12
1&
0(
1)
0S
1P
0I
1A
00
0$
1>
#1320000
0#
08
09
#1330000
1#
18
19
1Q
0J
1B
1?
1R
0K
1C
0@
05
14
03
11
1%
0'
1(
0)
1S
0M
1I
0A
10
1$
0>
#1340000
0#
08
09
#1350000
1#
18
19
0N
1J
0B
0?
0O
1K
0C
1@
15
04
13
02
0&
1'
0(
1)
0S
0P
1M
0I
1A
00
0$
1>
#1360000
0#
08
09
#1370000
1#
18
19
0Q
1N
0J
1B
1?
0R
1O
0K
1C
0@
05
14
03
12
01
0%
1&
0'
1(
0)
1P
0M
1I
0A
#1380000
0#
08
09
#1390000
1#
18
19
1Q
0N
1J
0B
1R
0O
1K
0C
04
13
02
11
1%
0&
1'
0(
1S
0P
1M
0I
10
1$
0>
#1400000
0#
08
09
#1410000
1#
18
19
0Q
1N
0J
0?
0R
1O
0K
1@
15
03
12
01
0%
1&
0'
1)
0S
1P
0M
1A
00
0$
1>
#1420000
0#
08
09
#1430000
1#
18
19
1Q
0N
1B
1?
1R
0O
1C
0@
05
14
02
11
1%
0&
1(
0)
0P
1I
0A
#1440000
0#
08
09
#1450000
1#
18
19
0Q
1J
0B
0R
1K
0C
04
13
01
0%
1'
0(
1M
0I
#1460000
0#
08
09
#1470000
1#
18
19
1N
0J
1O
0K
03
12
1&
0'
1S
1P
0M
10
1$
0>
#1480000
0#
08
09
#1490000
1#
18
19
1Q
0N
0?
1R
0O
1@
15
02
11
1%
0&
1)
0S
0P
1A
00
0$
1>
#1500000
0#
08
09
#1510000
1#
18
19
0Q
1B
1?
0R
1C
0@
05
14
01
0%
1(
0)
1S
1I
0A
10
1$
0>
#1520000
0#
08
09
#1530000
1#
18
19
1J
0B
0?
1K
0C
1@
15
04
13
1'
0(
1)
1M
0I
1A
#1540000
0#
08
09
#1550000
1#
18
19
1N
0J
1B
1O
0K
1C
14
03
12
1&
0'
1(
1P
0M
1I
#1560000
0#
08
09
#1570000
1#
18
19
1Q
0N
1J
1R
0O
1K
13
02
11
1%
0&
1'
0P
1M
#1580000
0#
08
09
#1590000
1#
18
19
0Q
1N
0R
1O
12
01
0%
1&
1P
#1600000
0#
08
09
#1610000
1#
18
19
1Q
1R
11
1%
0S
00
0$
1>
#1620000
0#
08
09
#1630000
1#
18
19
1?
0@
05
0)
1S
0A
10
1$
0>
#1640000
0#
08
09
#1650000
1#
18
19
0B
0?
0C
1@
15
04
0(
1)
0I
1A
#1660000
0#
08
09
#1670000
1#
18
19
0J
1B
0K
1C
14
03
0'
1(
0M
0S
1I
00
0$
1>
#1680000
0#
08
09
#1690000
1#
18
19
0N
1J
1?
0O
1K
0@
05
13
02
0&
1'
0)
0P
1M
0A
#1700000
0#
08
09
#1710000
1#
18
19
0Q
1N
0B
0R
1O
0C
04
12
01
0%
1&
0(
1S
1P
0I
10
1$
0>
#1720000
0#
08
09
#1730000
1#
18
19
1Q
0J
0?
1R
0K
1@
15
03
11
1%
0'
1)
0M
1A
#1740000
0#
08
09
#1750000
1#
18
19
0N
1B
0O
1C
14
02
0&
1(
0P
1I
#1760000
0#
08
09
#1770000
1#
18
19
0Q
1J
0R
1K
13
01
0%
1'
0S
1M
00
0$
1>
#1780000
0#
08
09
#1790000
1#
18
19
1N
1?
1O
0@
05
12
1&
0)
1P
0A
#1800000
0#
08
09
#1810000
1#
18
19
1Q
0B
1R
0C
04
11
1%
0(
0I
#1820000
0#
08
09
#1830000
1#
18
19
0J
0K
03
0'
0M
#1840000
0#
08
09
#1850000
1#
18
19
0N
0O
02
0&
1S
0P
10
1$
0>
#1860000
0#
08
09
#1870000
1#
18
19
0Q
0?
0R
1@
15
01
0%
1)
1A
#1880000
0#
08
09
#1890000
1#
18
19
1B
1C
14
1(
0S
1I
00
0$
1>
#1900000
0#
08
09
#1910000
1#
18
19
1J
1?
1K
0@
05
13
1'
0)
1M
1S
0A
10
1$
0>
#1920000
0#
08
09
#1930000
1#
18
19
1N
0B
0?
1O
0C
1@
15
04
12
1&
0(
1)
0S
1P
0I
1A
00
0$
1>
#1940000
0#
08
09
#1950000
1#
18
19
1Q
0J
1B
1?
1R
0K
1C
0@
05
14
03
11
1%
0'
1(
0)
1S
0M
1I
0A
10
1$
0>
#1960000
0#
08
09
#1970000
1#
18
19
0N
1J
0B
0?
0O
1K
0C
1@
15
04
13
02
0&
1'
0(
1)
0S
0P
1M
0I
1A
00
0$
1>
#1980000
0#
08
09
#1990000
1#
18
19
0Q
1N
0J
1B
1?
0R
1O
0K
1C
0@
05
14
03
12
01
0%
1&
0'
1(
0)
1P
0M
1I
0A
#2000000
0#
08
09
#2010000
1#
18
19
1Q
0N
1J
0B
1R
0O
1K
0C
04
13
02
11
1%
0&
1'
0(
1S
0P
1M
0I
10
1$
0>
#2020000
0#
08
09
#2030000
1#
18
19
0Q
1N
0J
0?
0R
1O
0K
1@
15
03
12
01
0%
1&
0'
1)
0S
1P
0M
1A
00
0$
1>
#2040000
0#
08
09
#2050000
1#
18
19
1Q
0N
1B
1?
1R
0O
1C
0@
05
14
02
11
1%
0&
1(
0)
0P
1I
0A
#2060000
0#
08
09
#2070000
1#
18
19
0Q
1J
0B
0R
1K
0C
04
13
01
0%
1'
0(
1M
0I
#2080000
0#
08
09
#2090000
1#
18
19
1N
0J
1O
0K
03
12
1&
0'
1S
1P
0M
10
1$
0>
#2100000
0#
08
09
#2110000
1#
18
19
1Q
0N
0?
1R
0O
1@
15
02
11
1%
0&
1)
0S
0P
1A
00
0$
1>
#2120000
0#
08
09
#2130000
1#
18
19
0Q
1B
1?
0R
1C
0@
05
14
01
0%
1(
0)
1S
1I
0A
10
1$
0>
#2140000
0#
08
09
#2150000
1#
18
19
1J
0B
0?
1K
0C
1@
15
04
13
1'
0(
1)
1M
0I
1A
#2160000
0#
08
09
#2170000
1#
18
19
1N
0J
1B
1O
0K
1C
14
03
12
1&
0'
1(
1P
0M
1I
#2180000
0#
08
09
#2190000
1#
18
19
1Q
0N
1J
1R
0O
1K
13
02
11
1%
0&
1'
0P
1M
#2200000
0#
08
09
#2210000
1#
18
19
0Q
1N
0R
1O
12
01
0%
1&
1P
#2220000
0#
08
09
#2230000
1#
18
19
1Q
1R
11
1%
0S
00
0$
1>
#2240000
0#
08
09
#2250000
1#
18
19
1?
0@
05
0)
1S
0A
10
1$
0>
#2260000
0#
08
09
#2270000
1#
18
19
0B
0?
0C
1@
15
04
0(
1)
0I
1A
#2280000
0#
08
09
#2290000
1#
18
19
0J
1B
0K
1C
14
03
0'
1(
0M
0S
1I
00
0$
1>
#2300000
0#
08
09
#2310000
1#
18
19
0N
1J
1?
0O
1K
0@
05
13
02
0&
1'
0)
0P
1M
0A
#2320000
0#
08
09
#2330000
1#
18
19
0Q
1N
0B
0R
1O
0C
04
12
01
0%
1&
0(
1S
1P
0I
10
1$
0>
#2340000
0#
08
09
#2350000
1#
18
19
1Q
0J
0?
1R
0K
1@
15
03
11
1%
0'
1)
0M
1A
#2360000
0#
08
09
#2370000
1#
18
19
0N
1B
0O
1C
14
02
0&
1(
0P
1I
#2380000
0#
08
09
#2390000
1#
18
19
0Q
1J
0R
1K
13
01
0%
1'
0S
1M
00
0$
1>
#2400000
0#
08
09
#2410000
1#
18
19
1N
1?
1O
0@
05
12
1&
0)
1P
0A
#2420000
0#
08
09
#2430000
1#
18
19
1Q
0B
1R
0C
04
11
1%
0(
0I
#2440000
0#
08
09
#2450000
1#
18
19
0J
0K
03
0'
0M
#2460000
0#
08
09
#2470000
1#
18
19
0N
0O
02
0&
1S
0P
10
1$
0>
#2480000
0#
08
09
#2490000
1#
18
19
0Q
0?
0R
1@
15
01
0%
1)
1A
#2500000
0#
08
09
#2510000
1#
18
19
1B
1C
14
1(
0S
1I
00
0$
1>
#2520000
0#
08
09
#2530000
1#
18
19
1J
1?
1K
0@
05
13
1'
0)
1M
1S
0A
10
1$
0>
#2540000
0#
08
09
#2550000
1#
18
19
1N
0B
0?
1O
0C
1@
15
04
12
1&
0(
1)
0S
1P
0I
1A
00
0$
1>
#2560000
0#
08
09
#2570000
1#
18
19
1Q
0J
1B
1?
1R
0K
1C
0@
05
14
03
11
1%
0'
1(
0)
1S
0M
1I
0A
10
1$
0>
#2580000
0#
08
09
#2590000
1#
18
19
0N
1J
0B
0?
0O
1K
0C
1@
15
04
13
02
0&
1'
0(
1)
0S
0P
1M
0I
1A
00
0$
1>
#2600000
0#
08
09
#2610000
1#
18
19
0Q
1N
0J
1B
1?
0R
1O
0K
1C
0@
05
14
03
12
01
0%
1&
0'
1(
0)
1P
0M
1I
0A
#2620000
0#
08
09
#2630000
1#
18
19
1Q
0N
1J
0B
1R
0O
1K
0C
04
13
02
11
1%
0&
1'
0(
1S
0P
1M
0I
10
1$
0>
#2640000
0#
08
09
#2650000
1#
18
19
0Q
1N
0J
0?
0R
1O
0K
1@
15
03
12
01
0%
1&
0'
1)
0S
1P
0M
1A
00
0$
1>
#2660000
0#
08
09
#2670000
1#
18
19
1Q
0N
1B
1?
1R
0O
1C
0@
05
14
02
11
1%
0&
1(
0)
0P
1I
0A
#2680000
0#
08
09
#2690000
1#
18
19
0Q
1J
0B
0R
1K
0C
04
13
01
0%
1'
0(
1M
0I
#2700000
0#
08
09
#2710000
1#
18
19
1N
0J
1O
0K
03
12
1&
0'
1S
1P
0M
10
1$
0>
#2720000
0#
08
09
#2730000
1#
18
19
1Q
0N
0?
1R
0O
1@
15
02
11
1%
0&
1)
0S
0P
1A
00
0$
1>
#2740000
0#
08
09
#2750000
1#
18
19
0Q
1B
1?
0R
1C
0@
05
14
01
0%
1(
0)
1S
1I
0A
10
1$
0>
#2760000
0#
08
09
#2770000
1#
18
19
1J
0B
0?
1K
0C
1@
15
04
13
1'
0(
1)
1M
0I
1A
#2780000
0#
08
09
#2790000
1#
18
19
1N
0J
1B
1O
0K
1C
14
03
12
1&
0'
1(
1P
0M
1I
#2800000
0#
08
09
#2810000
1#
18
19
1Q
0N
1J
1R
0O
1K
13
02
11
1%
0&
1'
0P
1M
#2820000
0#
08
09
#2830000
1#
18
19
0Q
1N
0R
1O
12
01
0%
1&
1P
#2840000
0#
08
09
#2850000
1#
18
19
1Q
1R
11
1%
0S
00
0$
1>
#2860000
0#
08
09
#2870000
1#
18
19
1?
0@
05
0)
1S
0A
10
1$
0>
#2880000
0#
08
09
#2890000
1#
18
19
0B
0?
0C
1@
15
04
0(
1)
0I
1A
#2900000
0#
08
09
#2910000
1#
18
19
0J
1B
0K
1C
14
03
0'
1(
0M
0S
1I
00
0$
1>
#2920000
0#
08
09
#2930000
1#
18
19
0N
1J
1?
0O
1K
0@
05
13
02
0&
1'
0)
0P
1M
0A
#2940000
0#
08
09
#2950000
1#
18
19
0Q
1N
0B
0R
1O
0C
04
12
01
0%
1&
0(
1S
1P
0I
10
1$
0>
#2960000
0#
08
09
#2970000
1#
18
19
1Q
0J
0?
1R
0K
1@
15
03
11
1%
0'
1)
0M
1A
#2980000
0#
08
09
#2990000
1#
18
19
0N
1B
0O
1C
14
02
0&
1(
0P
1I
#3000000
0#
08
09
#3010000
1#
18
19
0Q
1J
0R
1K
13
01
0%
1'
0S
1M
00
0$
1>
#3020000
0#
08
09
#3030000
1#
18
19
1N
1?
1O
0@
05
12
1&
0)
1P
0A
#3040000
0#
08
09
#3050000
1#
18
19
1Q
0B
1R
0C
04
11
1%
0(
0I
#3060000
0#
08
09
#3070000
1#
18
19
0J
0K
03
0'
0M
#3080000
0#
08
09
#3090000
1#
18
19
0N
0O
02
0&
1S
0P
10
1$
0>
#3100000
0#
08
09
#3110000
1#
18
19
0Q
0?
0R
1@
15
01
0%
1)
1A
#3120000
0#
08
09
#3130000
1#
18
19
1B
1C
14
1(
0S
1I
00
0$
1>
#3140000
0#
08
09
#3150000
1#
18
19
1J
1?
1K
0@
05
13
1'
0)
1M
1S
0A
10
1$
0>
#3160000
0#
08
09
#3170000
1#
18
19
1N
0B
0?
1O
0C
1@
15
04
12
1&
0(
1)
0S
1P
0I
1A
00
0$
1>
#3180000
0#
08
09
#3190000
1#
18
19
1Q
0J
1B
1?
1R
0K
1C
0@
05
14
03
11
1%
0'
1(
0)
1S
0M
1I
0A
10
1$
0>
#3200000
0#
08
09
#3210000
1#
18
19
0N
1J
0B
0?
0O
1K
0C
1@
15
04
13
02
0&
1'
0(
1)
0S
0P
1M
0I
1A
00
0$
1>
#3220000
0#
08
09
#3230000
1#
18
19
0Q
1N
0J
1B
1?
0R
1O
0K
1C
0@
05
14
03
12
01
0%
1&
0'
1(
0)
1P
0M
1I
0A
#3240000
0#
08
09
#3250000
1#
18
19
1Q
0N
1J
0B
1R
0O
1K
0C
04
13
02
11
1%
0&
1'
0(
1S
0P
1M
0I
10
1$
0>
#3260000
0#
08
09
#3270000
1#
18
19
0Q
1N
0J
0?
0R
1O
0K
1@
15
03
12
01
0%
1&
0'
1)
0S
1P
0M
1A
00
0$
1>
#3280000
0#
08
09
#3290000
1#
18
19
1Q
0N
1B
1?
1R
0O
1C
0@
05
14
02
11
1%
0&
1(
0)
0P
1I
0A
#3300000
0#
08
09
#3310000
1#
18
19
0Q
1J
0B
0R
1K
0C
04
13
01
0%
1'
0(
1M
0I
#3320000
0#
08
09
#3330000
1#
18
19
1N
0J
1O
0K
03
12
1&
0'
1S
1P
0M
10
1$
0>
#3340000
0#
08
09
#3350000
1#
18
19
1Q
0N
0?
1R
0O
1@
15
02
11
1%
0&
1)
0S
0P
1A
00
0$
1>
#3360000
0#
08
09
#3370000
1#
18
19
0Q
1B
1?
0R
1C
0@
05
14
01
0%
1(
0)
1S
1I
0A
10
1$
0>
#3380000
0#
08
09
#3390000
1#
18
19
1J
0B
0?
1K
0C
1@
15
04
13
1'
0(
1)
1M
0I
1A
#3400000
0#
08
09
#3410000
1#
18
19
1N
0J
1B
1O
0K
1C
14
03
12
1&
0'
1(
1P
0M
1I
#3420000
0#
08
09
#3430000
1#
18
19
1Q
0N
1J
1R
0O
1K
13
02
11
1%
0&
1'
0P
1M
#3440000
0#
08
09
#3450000
1#
18
19
0Q
1N
0R
1O
12
01
0%
1&
1P
#3460000
0#
08
09
#3470000
1#
18
19
1Q
1R
11
1%
0S
00
0$
1>
#3480000
0#
08
09
#3490000
1#
18
19
1?
0@
05
0)
1S
0A
10
1$
0>
#3500000
0#
08
09
#3510000
1#
18
19
0B
0?
0C
1@
15
04
0(
1)
0I
1A
#3520000
0#
08
09
#3530000
1#
18
19
0J
1B
0K
1C
14
03
0'
1(
0M
0S
1I
00
0$
1>
#3540000
0#
08
09
#3550000
1#
18
19
0N
1J
1?
0O
1K
0@
05
13
02
0&
1'
0)
0P
1M
0A
#3560000
0#
08
09
#3570000
1#
18
19
0Q
1N
0B
0R
1O
0C
04
12
01
0%
1&
0(
1S
1P
0I
10
1$
0>
#3580000
0#
08
09
#3590000
1#
18
19
1Q
0J
0?
1R
0K
1@
15
03
11
1%
0'
1)
0M
1A
#3600000
0#
08
09
#3610000
1#
18
19
0N
1B
0O
1C
14
02
0&
1(
0P
1I
#3620000
0#
08
09
#3630000
1#
18
19
0Q
1J
0R
1K
13
01
0%
1'
0S
1M
00
0$
1>
#3640000
0#
08
09
#3650000
1#
18
19
1N
1?
1O
0@
05
12
1&
0)
1P
0A
#3660000
0#
08
09
#3670000
1#
18
19
1Q
0B
1R
0C
04
11
1%
0(
0I
#3680000
0#
08
09
#3690000
1#
18
19
0J
0K
03
0'
0M
#3700000
0#
08
09
#3710000
1#
18
19
0N
0O
02
0&
1S
0P
10
1$
0>
#3720000
0#
08
09
#3730000
1#
18
19
0Q
0?
0R
1@
15
01
0%
1)
1A
#3740000
0#
08
09
#3750000
1#
18
19
1B
1C
14
1(
0S
1I
00
0$
1>
#3760000
0#
08
09
#3770000
1#
18
19
1J
1?
1K
0@
05
13
1'
0)
1M
1S
0A
10
1$
0>
#3780000
0#
08
09
#3790000
1#
18
19
1N
0B
0?
1O
0C
1@
15
04
12
1&
0(
1)
0S
1P
0I
1A
00
0$
1>
#3800000
0#
08
09
#3810000
1#
18
19
1Q
0J
1B
1?
1R
0K
1C
0@
05
14
03
11
1%
0'
1(
0)
1S
0M
1I
0A
10
1$
0>
#3820000
0#
08
09
#3830000
1#
18
19
0N
1J
0B
0?
0O
1K
0C
1@
15
04
13
02
0&
1'
0(
1)
0S
0P
1M
0I
1A
00
0$
1>
#3840000
0#
08
09
#3850000
1#
18
19
0Q
1N
0J
1B
1?
0R
1O
0K
1C
0@
05
14
03
12
01
0%
1&
0'
1(
0)
1P
0M
1I
0A
#3860000
0#
08
09
#3870000
1#
18
19
1Q
0N
1J
0B
1R
0O
1K
0C
04
13
02
11
1%
0&
1'
0(
1S
0P
1M
0I
10
1$
0>
#3880000
0#
08
09
#3890000
1#
18
19
0Q
1N
0J
0?
0R
1O
0K
1@
15
03
12
01
0%
1&
0'
1)
0S
1P
0M
1A
00
0$
1>
#3900000
0#
08
09
#3910000
1#
18
19
1Q
0N
1B
1?
1R
0O
1C
0@
05
14
02
11
1%
0&
1(
0)
0P
1I
0A
#3920000
0#
08
09
#3930000
1#
18
19
0Q
1J
0B
0R
1K
0C
04
13
01
0%
1'
0(
1M
0I
#3940000
0#
08
09
#3950000
1#
18
19
1N
0J
1O
0K
03
12
1&
0'
1S
1P
0M
10
1$
0>
#3960000
0#
08
09
#3970000
1#
18
19
1Q
0N
0?
1R
0O
1@
15
02
11
1%
0&
1)
0S
0P
1A
00
0$
1>
#3980000
0#
08
09
#3990000
1#
18
19
0Q
1B
1?
0R
1C
0@
05
14
01
0%
1(
0)
1S
1I
0A
10
1$
0>
#4000000
0#
08
09
#4010000
1#
18
19
1J
0B
0?
1K
0C
1@
15
04
13
1'
0(
1)
1M
0I
1A
#4020000
0#
08
09
#4030000
1#
18
19
1N
0J
1B
1O
0K
1C
14
03
12
1&
0'
1(
1P
0M
1I
#4040000
0#
08
09
#4050000
1#
18
19
1Q
0N
1J
1R
0O
1K
13
02
11
1%
0&
1'
0P
1M
#4060000
0#
08
09
#4070000
1#
18
19
0Q
1N
0R
1O
12
01
0%
1&
1P
#4080000
0#
08
09
#4090000
1#
18
19
1Q
1R
11
1%
0S
00
0$
1>
#4100000
0#
08
09
#4110000
1#
18
19
1?
0@
05
0)
1S
0A
10
1$
0>
#4120000
0#
08
09
#4130000
1#
18
19
0B
0?
0C
1@
15
04
0(
1)
0I
1A
#4140000
0#
08
09
#4150000
1#
18
19
0J
1B
0K
1C
14
03
0'
1(
0M
0S
1I
00
0$
1>
#4160000
0#
08
09
#4170000
1#
18
19
0N
1J
1?
0O
1K
0@
05
13
02
0&
1'
0)
0P
1M
0A
#4180000
0#
08
09
#4190000
1#
18
19
0Q
1N
0B
0R
1O
0C
04
12
01
0%
1&
0(
1S
1P
0I
10
1$
0>
#4200000
0#
08
09
#4210000
1#
18
19
1Q
0J
0?
1R
0K
1@
15
03
11
1%
0'
1)
0M
1A
#4220000
0#
08
09
#4230000
1#
18
19
0N
1B
0O
1C
14
02
0&
1(
0P
1I
