simulation/qsim/Mgenerator.msim.vcd
$comment
	File created using the following command:
		vcd file Mgenerator.msim.vcd -direction
$end
$date
	Fri Oct 02 14:24:08 2020
$end
$version
	ModelSim Version 10.5b
$end
$timescale
	1ps
$end

$scope module deBruijn_vlg_vec_tst $end
$var reg 1 ! ALOAD $end
$var reg 5 " ASDATA [4:0] $end
$var reg 1 # Clock $end
$var wire 1 $ Out $end
$var wire 1 % State [4] $end
$var wire 1 & State [3] $end
$var wire 1 ' State [2] $end
$var wire 1 ( State [1] $end
$var wire 1 ) State [0] $end

$scope module i1 $end
$var wire 1 * gnd $end
$var wire 1 + vcc $end
$var wire 1 , unknown $end
$var tri1 1 - devclrn $end
$var tri1 1 . devpor $end
$var tri1 1 / devoe $end
$var wire 1 0 Out~output_o $end
$var wire 1 1 State[4]~output_o $end
$var wire 1 2 State[3]~output_o $end
$var wire 1 3 State[2]~output_o $end
$var wire 1 4 State[1]~output_o $end
$var wire 1 5 State[0]~output_o $end
$var wire 1 6 ALOAD~input_o $end
$var wire 1 7 ASDATA[3]~input_o $end
$var wire 1 8 Clock~input_o $end
$var wire 1 9 Clock~inputclkctrl_outclk $end
$var wire 1 : ALOAD~inputclkctrl_outclk $end
$var wire 1 ; inst12~1_combout $end
$var wire 1 < ASDATA[1]~input_o $end
$var wire 1 = inst10~1_combout $end
$var wire 1 > ASDATA[0]~input_o $end
$var wire 1 ? inst1~1_combout $end
$var wire 1 @ inst1~3_combout $end
$var wire 1 A inst1~_emulated_q $end
$var wire 1 B inst1~2_combout $end
$var wire 1 C inst10~3_combout $end
$var wire 1 D inst10~_emulated_q $end
$var wire 1 E inst10~2_combout $end
$var wire 1 F ASDATA[2]~input_o $end
$var wire 1 G inst11~1_combout $end
$var wire 1 H inst11~3_combout $end
$var wire 1 I inst11~_emulated_q $end
$var wire 1 J inst11~2_combout $end
$var wire 1 K inst12~3_combout $end
$var wire 1 L inst12~_emulated_q $end
$var wire 1 M inst12~2_combout $end
$var wire 1 N inst2~0_combout $end
$var wire 1 O ASDATA[4]~input_o $end
$var wire 1 P inst13~1_combout $end
$var wire 1 Q inst13~3_combout $end
$var wire 1 R inst13~_emulated_q $end
$var wire 1 S inst13~2_combout $end
$var wire 1 T inst5~combout $end
$upscope $end
$upscope $end
$enddefinitions $end
#0
$dumpvars
1!
b1 "
0#
0$
1)
0(
0'
0&
0%
0*
1+
x,
1-
1.
1/
00
01
02
03
04
15
16
07
08
09
1:
0;
0<
0=
1>
1?
1@
0A
1B
1C
0D
0E
0F
0G
0H
0I
0J
0K
0L
0M
0N
0O
0P
0Q
0R
0S
1T
$end
#10000
1#
18
19
#20000
0!
b0 "
0#
06
0>
08
0:
09
#30000
1#
18
19
1D
1A
1E
0B
05
14
0T
1(
0)
1H
0C
10
1$
0@
#40000
0#
08
09
#50000
1#
18
19
1I
0D
0A
1J
0E
1B
15
04
13
1'
0(
1)
1K
0H
1C
#60000
0#
08
09
#70000
1#
18
19
1L
0I
1D
1M
0J
1E
14
03
12
1T
1&
0'
1(
1Q
0K
1H
00
0$
1@
#80000
0#
08
09
#90000
1#
18
19
1R
0L
1I
1A
1S
0M
1J
0B
05
13
02
11
0T
1%
0&
1'
0)
0Q
1K
0C
10
1$
0@
#100000
0#
08
09
#110000
1#
18
19
0R
1L
0D
0A
0S
1M
0E
1B
15
04
12
01
0%
1&
0(
1)
1Q
0H
1C
#120000
0#
08
09
#130000
1#
18
19
1R
0I
1D
1S
0J
1E
14
03
11
1%
0'
1(
0K
1H
#140000
0#
08
09
#150000
1#
18
19
0L
1I
0M
1J
13
02
1T
0&
1'
0Q
1K
00
0$
1@
#160000
0#
08
09
#170000
1#
18
19
0R
1L
1A
0S
1M
0B
05
12
01
0%
1&
0)
1Q
0C
#180000
0#
08
09
#190000
1#
18
19
1R
0D
1S
0E
04
11
0T
1%
0(
0H
10
1$
0@
#200000
0#
08
09
#210000
1#
18
19
0I
0A
0J
1B
15
03
0'
1)
0K
1C
#220000
0#
08
09
#230000
1#
18
19
0L
1D
0M
1E
14
02
0&
1(
0Q
1H
#240000
0#
08
09
#250000
1#
18
19
0R
1I
0S
1J
13
01
0%
1'
1K
#260000
0#
08
09
#270000
1#
18
19
1L
1M
12
1N
1&
1Q
1T
00
0$
1@
#280000
0#
08
09
#290000
1#
18
19
1R
1A
1S
0B
05
11
0N
1%
0)
0C
0T
10
1$
0@
#300000
0#
08
09
#310000
1#
18
19
0D
0A
0E
1B
15
04
1T
0(
1)
0H
1C
00
0$
1@
#320000
0#
08
09
#330000
1#
18
19
0I
1D
1A
0J
1E
0B
05
14
03
0'
1(
0)
0K
1H
0C
#340000
0#
08
09
#350000
1#
18
19
0L
1I
0D
0M
1J
0E
04
13
02
0T
0&
1'
0(
0Q
1K
0H
10
1$
0@
#360000
0#
08
09
#370000
1#
18
19
0R
1L
0I
0A
0S
1M
0J
1B
15
03
12
01
1T
0%
1&
0'
1)
1Q
0K
1C
00
0$
1@
#380000
0#
08
09
#390000
1#
18
19
1R
0L
1D
1A
1S
0M
1E
0B
05
14
02
11
1%
0&
1(
0)
0Q
1H
0C
#400000
0#
08
09
#410000
1#
18
19
0R
1I
0D
0S
1J
0E
04
13
01
0%
1'
0(
1K
0H
#420000
0#
08
09
#430000
1#
18
19
1L
0I
1M
0J
03
12
0T
1&
0'
1Q
0K
10
1$
0@
#440000
0#
08
09
#450000
1#
18
19
1R
0L
0A
1S
0M
1B
15
02
11
1%
0&
1)
0Q
1C
#460000
0#
08
09
#470000
1#
18
19
0R
1D
0S
1E
14
01
1T
0%
1(
1H
00
0$
1@
#480000
0#
08
09
#490000
1#
18
19
1I
1A
1J
0B
05
13
1'
0)
1K
0C
#500000
0#
08
09
#510000
1#
18
19
1L
0D
1M
0E
04
12
1&
0(
1Q
0H
#520000
0#
08
09
#530000
1#
18
19
1R
0I
1S
0J
03
11
1%
0'
0K
#540000
0#
08
09
#550000
1#
18
19
0L
0M
02
0&
0Q
#560000
0#
08
09
#570000
1#
18
19
0R
0S
01
0T
0%
10
1$
0@
#580000
0#
08
09
#590000
1#
18
19
0A
1B
15
1T
1)
1C
00
0$
1@
#600000
0#
08
09
#610000
1#
18
19
1D
1A
1E
0B
05
14
0T
1(
0)
1H
0C
10
1$
0@
#620000
0#
08
09
#630000
1#
18
19
1I
0D
0A
1J
0E
1B
15
04
13
1'
0(
1)
1K
0H
1C
#640000
0#
08
09
#650000
1#
18
19
1L
0I
1D
1M
0J
1E
14
03
12
1T
1&
0'
1(
1Q
0K
1H
00
0$
1@
#660000
0#
08
09
#670000
1#
18
19
1R
0L
1I
1A
1S
0M
1J
0B
05
13
02
11
0T
1%
0&
1'
0)
0Q
1K
0C
10
1$
0@
#680000
0#
08
09
#690000
1#
18
19
0R
1L
0D
0A
0S
1M
0E
1B
15
04
12
01
0%
1&
0(
1)
1Q
0H
1C
#700000
0#
08
09
#710000
1#
18
19
1R
0I
1D
1S
0J
1E
14
03
11
1%
0'
1(
0K
1H
#720000
0#
08
09
#730000
1#
18
19
0L
1I
0M
1J
13
02
1T
0&
1'
0Q
1K
00
0$
1@
#740000
0#
08
09
#750000
1#
18
19
0R
1L
1A
0S
1M
0B
05
12
01
0%
1&
0)
1Q
0C
#760000
0#
08
09
#770000
1#
18
19
1R
0D
1S
0E
04
11
0T
1%
0(
0H
10
1$
0@
#780000
0#
08
09
#790000
1#
18
19
0I
0A
0J
1B
15
03
0'
1)
0K
1C
#800000
0#
08
09
#810000
1#
18
19
0L
1D
0M
1E
14
02
0&
1(
0Q
1H
#820000
0#
08
09
#830000
1#
18
19
0R
1I
0S
1J
13
01
0%
1'
1K
#840000
0#
08
09
#850000
1#
18
19
1L
1M
12
1N
1&
1Q
1T
00
0$
1@
#860000
0#
08
09
#870000
1#
18
19
1R
1A
1S
0B
05
11
0N
1%
0)
0C
0T
10
1$
0@
#880000
0#
08
09
#890000
1#
18
19
0D
0A
0E
1B
15
04
1T
0(
1)
0H
1C
00
0$
1@
#900000
0#
08
09
#910000
1#
18
19
0I
1D
1A
0J
1E
0B
05
14
03
0'
1(
0)
0K
1H
0C
#920000
0#
08
09
#930000
1#
18
19
0L
1I
0D
0M
1J
0E
04
13
02
0T
0&
1'
0(
0Q
1K
0H
10
1$
0@
#940000
0#
08
09
#950000
1#
18
19
0R
1L
0I
0A
0S
1M
0J
1B
15
03
12
01
1T
0%
1&
0'
1)
1Q
0K
1C
00
0$
1@
#960000
0#
08
09
#970000
1#
18
19
1R
0L
1D
1A
1S
0M
1E
0B
05
14
02
11
1%
0&
1(
0)
0Q
1H
0C
#980000
0#
08
09
#990000
1#
18
19
0R
1I
0D
0S
1J
0E
04
13
01
0%
1'
0(
1K
0H
#1000000
0#
08
09
#1010000
1#
18
19
1L
0I
1M
0J
03
12
0T
1&
0'
1Q
0K
10
1$
0@
#1020000
0#
08
09
#1030000
1#
18
19
1R
0L
0A
1S
0M
1B
15
02
11
1%
0&
1)
0Q
1C
#1040000
0#
08
09
#1050000
1#
18
19
0R
1D
0S
1E
14
01
1T
0%
1(
1H
00
0$
1@
#1060000
0#
08
09
#1070000
1#
18
19
1I
1A
1J
0B
05
13
1'
0)
1K
0C
#1080000
0#
08
09
#1090000
1#
18
19
1L
0D
1M
0E
04
12
1&
0(
1Q
0H
#1100000
0#
08
09
#1110000
1#
18
19
1R
0I
1S
0J
03
11
1%
0'
0K
#1120000
0#
08
09
#1130000
1#
18
19
0L
0M
02
0&
0Q
#1140000
0#
08
09
#1150000
1#
18
19
0R
0S
01
0T
0%
10
1$
0@
#1160000
0#
08
09
#1170000
1#
18
19
0A
1B
15
1T
1)
1C
00
0$
1@
#1180000
0#
08
09
#1190000
1#
18
19
1D
1A
1E
0B
05
14
0T
1(
0)
1H
0C
10
1$
0@
#1200000
0#
08
09
#1210000
1#
18
19
1I
0D
0A
1J
0E
1B
15
04
13
1'
0(
1)
1K
0H
1C
#1220000
0#
08
09
#1230000
1#
18
19
1L
0I
1D
1M
0J
1E
14
03
12
1T
1&
0'
1(
1Q
0K
1H
00
0$
1@
#1240000
0#
08
09
#1250000
1#
18
19
1R
0L
1I
1A
1S
0M
1J
0B
05
13
02
11
0T
1%
0&
1'
0)
0Q
1K
0C
10
1$
0@
#1260000
0#
08
09
#1270000
1#
18
19
0R
1L
0D
0A
0S
1M
0E
1B
15
04
12
01
0%
1&
0(
1)
1Q
0H
1C
#1280000
0#
08
09
#1290000
1#
18
19
1R
0I
1D
1S
0J
1E
14
03
11
1%
0'
1(
0K
1H
#1300000
0#
08
09
#1310000
1#
18
19
0L
1I
0M
1J
13
02
1T
0&
1'
0Q
1K
00
0$
1@
#1320000
0#
08
09
#1330000
1#
18
19
0R
1L
1A
0S
1M
0B
05
12
01
0%
1&
0)
1Q
0C
#1340000
0#
08
09
#1350000
1#
18
19
1R
0D
1S
0E
04
11
0T
1%
0(
0H
10
1$
0@
#1360000
0#
08
09
#1370000
1#
18
19
0I
0A
0J
1B
15
03
0'
1)
0K
1C
#1380000
0#
08
09
#1390000
1#
18
19
0L
1D
0M
1E
14
02
0&
1(
0Q
1H
#1400000
0#
08
09
#1410000
1#
18
19
0R
1I
0S
1J
13
01
0%
1'
1K
#1420000
0#
08
09
#1430000
1#
18
19
1L
1M
12
1N
1&
1Q
1T
00
0$
1@
#1440000
0#
08
09
#1450000
1#
18
19
1R
1A
1S
0B
05
11
0N
1%
0)
0C
0T
10
1$
0@
#1460000
0#
08
09
#1470000
1#
18
19
0D
0A
0E
1B
15
04
1T
0(
1)
0H
1C
00
0$
1@
#1480000
0#
08
09
#1490000
1#
18
19
0I
1D
1A
0J
1E
0B
05
14
03
0'
1(
0)
0K
1H
0C
#1500000
0#
08
09
#1510000
1#
18
19
0L
1I
0D
0M
1J
0E
04
13
02
0T
0&
1'
0(
0Q
1K
0H
10
1$
0@
#1520000
0#
08
09
#1530000
1#
18
19
0R
1L
0I
0A
0S
1M
0J
1B
15
03
12
01
1T
0%
1&
0'
1)
1Q
0K
1C
00
0$
1@
#1540000
0#
08
09
#1550000
1#
18
19
1R
0L
1D
1A
1S
0M
1E
0B
05
14
02
11
1%
0&
1(
0)
0Q
1H
0C
#1560000
0#
08
09
#1570000
1#
18
19
0R
1I
0D
0S
1J
0E
04
13
01
0%
1'
0(
1K
0H
#1580000
0#
08
09
#1590000
1#
18
19
1L
0I
1M
0J
03
12
0T
1&
0'
1Q
0K
10
1$
0@
#1600000
0#
08
09
#1610000
1#
18
19
1R
0L
0A
1S
0M
1B
15
02
11
1%
0&
1)
0Q
1C
#1620000
0#
08
09
#1630000
1#
18
19
0R
1D
0S
1E
14
01
1T
0%
1(
1H
00
0$
1@
#1640000
0#
08
09
#1650000
1#
18
19
1I
1A
1J
0B
05
13
1'
0)
1K
0C
#1660000
0#
08
09
#1670000
1#
18
19
1L
0D
1M
0E
04
12
1&
0(
1Q
0H
#1680000
0#
08
09
#1690000
1#
18
19
1R
0I
1S
0J
03
11
1%
0'
0K
#1700000
0#
08
09
#1710000
1#
18
19
0L
0M
02
0&
0Q
#1720000
0#
08
09
#1730000
1#
18
19
0R
0S
01
0T
0%
10
1$
0@
#1740000
0#
08
09
#1750000
1#
18
19
0A
1B
15
1T
1)
1C
00
0$
1@
#1760000
0#
08
09
#1770000
1#
18
19
1D
1A
1E
0B
05
14
0T
1(
0)
1H
0C
10
1$
0@
#1780000
0#
08
09
#1790000
1#
18
19
1I
0D
0A
1J
0E
1B
15
04
13
1'
0(
1)
1K
0H
1C
#1800000
0#
08
09
#1810000
1#
18
19
1L
0I
1D
1M
0J
1E
14
03
12
1T
1&
0'
1(
1Q
0K
1H
00
0$
1@
#1820000
0#
08
09
#1830000
1#
18
19
1R
0L
1I
1A
1S
0M
1J
0B
05
13
02
11
0T
1%
0&
1'
0)
0Q
1K
0C
10
1$
0@
#1840000
0#
08
09
#1850000
1#
18
19
0R
1L
0D
0A
0S
1M
0E
1B
15
04
12
01
0%
1&
0(
1)
1Q
0H
1C
#1860000
0#
08
09
#1870000
1#
18
19
1R
0I
1D
1S
0J
1E
14
03
11
1%
0'
1(
0K
1H
#1880000
0#
08
09
#1890000
1#
18
19
0L
1I
0M
1J
13
02
1T
0&
1'
0Q
1K
00
0$
1@
#1900000
0#
08
09
#1910000
1#
18
19
0R
1L
1A
0S
1M
0B
05
12
01
0%
1&
0)
1Q
0C
#1920000
0#
08
09
#1930000
1#
18
19
1R
0D
1S
0E
04
11
0T
1%
0(
0H
10
1$
0@
#1940000
0#
08
09
#1950000
1#
18
19
0I
0A
0J
1B
15
03
0'
1)
0K
1C
#1960000
0#
08
09
#1970000
1#
18
19
0L
1D
0M
1E
14
02
0&
1(
0Q
1H
#1980000
0#
08
09
#1990000
1#
18
19
0R
1I
0S
1J
13
01
0%
1'
1K
#2000000
0#
08
09
#2010000
1#
18
19
1L
1M
12
1N
1&
1Q
1T
00
0$
1@
#2020000
0#
08
09
#2030000
1#
18
19
1R
1A
1S
0B
05
11
0N
1%
0)
0C
0T
10
1$
0@
#2040000
0#
08
09
#2050000
1#
18
19
0D
0A
0E
1B
15
04
1T
0(
1)
0H
1C
00
0$
1@
#2060000
0#
08
09
#2070000
1#
18
19
0I
1D
1A
0J
1E
0B
05
14
03
0'
1(
0)
0K
1H
0C
#2080000
0#
08
09
#2090000
1#
18
19
0L
1I
0D
0M
1J
0E
04
13
02
0T
0&
1'
0(
0Q
1K
0H
10
1$
0@
#2100000
0#
08
09
#2110000
1#
18
19
0R
1L
0I
0A
0S
1M
0J
1B
15
03
12
01
1T
0%
1&
0'
1)
1Q
0K
1C
00
0$
1@
#2120000
0#
08
09
#2130000
1#
18
19
1R
0L
1D
1A
1S
0M
1E
0B
05
14
02
11
1%
0&
1(
0)
0Q
1H
0C
#2140000
0#
08
09
#2150000
1#
18
19
0R
1I
0D
0S
1J
0E
04
13
01
0%
1'
0(
1K
0H
#2160000
0#
08
09
#2170000
1#
18
19
1L
0I
1M
0J
03
12
0T
1&
0'
1Q
0K
10
1$
0@
#2180000
0#
08
09
#2190000
1#
18
19
1R
0L
0A
1S
0M
1B
15
02
11
1%
0&
1)
0Q
1C
#2200000
0#
08
09
#2210000
1#
18
19
0R
1D
0S
1E
14
01
1T
0%
1(
1H
00
0$
1@
#2220000
0#
08
09
#2230000
1#
18
19
1I
1A
1J
0B
05
13
1'
0)
1K
0C
#2240000
0#
08
09
#2250000
1#
18
19
1L
0D
1M
0E
04
12
1&
0(
1Q
0H
#2260000
0#
08
09
#2270000
1#
18
19
1R
0I
1S
0J
03
11
1%
0'
0K
#2280000
0#
08
09
#2290000
1#
18
19
0L
0M
02
0&
0Q
#2300000
0#
08
09
#2310000
1#
18
19
0R
0S
01
0T
0%
10
1$
0@
#2320000
0#
08
09
#2330000
1#
18
19
0A
1B
15
1T
1)
1C
00
0$
1@
#2340000
0#
08
09
#2350000
1#
18
19
1D
1A
1E
0B
05
14
0T
1(
0)
1H
0C
10
1$
0@
#2360000
0#
08
09
#2370000
1#
18
19
1I
0D
0A
1J
0E
1B
15
04
13
1'
0(
1)
1K
0H
1C
#2380000
0#
08
09
#2390000
1#
18
19
1L
0I
1D
1M
0J
1E
14
03
12
1T
1&
0'
1(
1Q
0K
1H
00
0$
1@
#2400000
0#
08
09
#2410000
1#
18
19
1R
0L
1I
1A
1S
0M
1J
0B
05
13
02
11
0T
1%
0&
1'
0)
0Q
1K
0C
10
1$
0@
#2420000
0#
08
09
#2430000
1#
18
19
0R
1L
0D
0A
0S
1M
0E
1B
15
04
12
01
0%
1&
0(
1)
1Q
0H
1C
#2440000
0#
08
09
#2450000
1#
18
19
1R
0I
1D
1S
0J
1E
14
03
11
1%
0'
1(
0K
1H
#2460000
0#
08
09
#2470000
1#
18
19
0L
1I
0M
1J
13
02
1T
0&
1'
0Q
1K
00
0$
1@
#2480000
0#
08
09
#2490000
1#
18
19
0R
1L
1A
0S
1M
0B
05
12
01
0%
1&
0)
1Q
0C
#2500000
0#
08
09
#2510000
1#
18
19
1R
0D
1S
0E
04
11
0T
1%
0(
0H
10
1$
0@
#2520000
0#
08
09
#2530000
1#
18
19
0I
0A
0J
1B
15
03
0'
1)
0K
1C
#2540000
0#
08
09
#2550000
1#
18
19
0L
1D
0M
1E
14
02
0&
1(
0Q
1H
#2560000
0#
08
09
#2570000
1#
18
19
0R
1I
0S
1J
13
01
0%
1'
1K
#2580000
0#
08
09
#2590000
1#
18
19
1L
1M
12
1N
1&
1Q
1T
00
0$
1@
#2600000
0#
08
09
#2610000
1#
18
19
1R
1A
1S
0B
05
11
0N
1%
0)
0C
0T
10
1$
0@
#2620000
0#
08
09
#2630000
1#
18
19
0D
0A
0E
1B
15
04
1T
0(
1)
0H
1C
00
0$
1@
#2640000
0#
08
09
#2650000
1#
18
19
0I
1D
1A
0J
1E
0B
05
14
03
0'
1(
0)
0K
1H
0C
#2660000
0#
08
09
#2670000
1#
18
19
0L
1I
0D
0M
1J
0E
04
13
02
0T
0&
1'
0(
0Q
1K
0H
10
1$
0@
#2680000
0#
08
09
#2690000
1#
18
19
0R
1L
0I
0A
0S
1M
0J
1B
15
03
12
01
1T
0%
1&
0'
1)
1Q
0K
1C
00
0$
1@
#2700000
0#
08
09
#2710000
1#
18
19
1R
0L
1D
1A
1S
0M
1E
0B
05
14
02
11
1%
0&
1(
0)
0Q
1H
0C
#2720000
0#
08
09
#2730000
1#
18
19
0R
1I
0D
0S
1J
0E
04
13
01
0%
1'
0(
1K
0H
#2740000
0#
08
09
#2750000
1#
18
19
1L
0I
1M
0J
03
12
0T
1&
0'
1Q
0K
10
1$
0@
#2760000
0#
08
09
#2770000
1#
18
19
1R
0L
0A
1S
0M
1B
15
02
11
1%
0&
1)
0Q
1C
#2780000
0#
08
09
#2790000
1#
18
19
0R
1D
0S
1E
14
01
1T
0%
1(
1H
00
0$
1@
#2800000
0#
08
09
#2810000
1#
18
19
1I
1A
1J
0B
05
13
1'
0)
1K
0C
#2820000
0#
08
09
#2830000
1#
18
19
1L
0D
1M
0E
04
12
1&
0(
1Q
0H
#2840000
0#
08
09
#2850000
1#
18
19
1R
0I
1S
0J
03
11
1%
0'
0K
#2860000
0#
08
09
#2870000
1#
18
19
0L
0M
02
0&
0Q
#2880000
0#
08
09
#2890000
1#
18
19
0R
0S
01
0T
0%
10
1$
0@
#2900000
0#
08
09
#2910000
1#
18
19
0A
1B
15
1T
1)
1C
00
0$
1@
#2920000
0#
08
09
#2930000
1#
18
19
1D
1A
1E
0B
05
14
0T
1(
0)
1H
0C
10
1$
0@
#2940000
0#
08
09
#2950000
1#
18
19
1I
0D
0A
1J
0E
1B
15
04
13
1'
0(
1)
1K
0H
1C
#2960000
0#
08
09
#2970000
1#
18
19
1L
0I
1D
1M
0J
1E
14
03
12
1T
1&
0'
1(
1Q
0K
1H
00
0$
1@
#2980000
0#
08
09
#2990000
1#
18
19
1R
0L
1I
1A
1S
0M
1J
0B
05
13
02
11
0T
1%
0&
1'
0)
0Q
1K
0C
10
1$
0@
#3000000
0#
08
09
#3010000
1#
18
19
0R
1L
0D
0A
0S
1M
0E
1B
15
04
12
01
0%
1&
0(
1)
1Q
0H
1C
#3020000
0#
08
09
#3030000
1#
18
19
1R
0I
1D
1S
0J
1E
14
03
11
1%
0'
1(
0K
1H
#3040000
0#
08
09
#3050000
1#
18
19
0L
1I
0M
1J
13
02
1T
0&
1'
0Q
1K
00
0$
1@
#3060000
0#
08
09
#3070000
1#
18
19
0R
1L
1A
0S
1M
0B
05
12
01
0%
1&
0)
1Q
0C
#3080000
0#
08
09
#3090000
1#
18
19
1R
0D
1S
0E
04
11
0T
1%
0(
0H
10
1$
0@
#3100000
0#
08
09
#3110000
1#
18
19
0I
0A
0J
1B
15
03
0'
1)
0K
1C
#3120000
0#
08
09
#3130000
1#
18
19
0L
1D
0M
1E
14
02
0&
1(
0Q
1H
#3140000
0#
08
09
#3150000
1#
18
19
0R
1I
0S
1J
13
01
0%
1'
1K
#3160000
0#
08
09
#3170000
1#
18
19
1L
1M
12
1N
1&
1Q
1T
00
0$
1@
#3180000
0#
08
09
#3190000
1#
18
19
1R
1A
1S
0B
05
11
0N
1%
0)
0C
0T
10
1$
0@
#3200000
0#
08
09
#3210000
1#
18
19
0D
0A
0E
1B
15
04
1T
0(
1)
0H
1C
00
0$
1@
#3220000
0#
08
09
#3230000
1#
18
19
0I
1D
1A
0J
1E
0B
05
14
03
0'
1(
0)
0K
1H
0C
#3240000
0#
08
09
#3250000
1#
18
19
0L
1I
0D
0M
1J
0E
04
13
02
0T
0&
1'
0(
0Q
1K
0H
10
1$
0@
#3260000
0#
08
09
#3270000
1#
18
19
0R
1L
0I
0A
0S
1M
0J
1B
15
03
12
01
1T
0%
1&
0'
1)
1Q
0K
1C
00
0$
1@
#3280000
0#
08
09
#3290000
1#
18
19
1R
0L
1D
1A
1S
0M
1E
0B
05
14
02
11
1%
0&
1(
0)
0Q
1H
0C
#3300000
0#
08
09
#3310000
1#
18
19
0R
1I
0D
0S
1J
0E
04
13
01
0%
1'
0(
1K
0H
#3320000
0#
08
09
#3330000
1#
18
19
1L
0I
1M
0J
03
12
0T
1&
0'
1Q
0K
10
1$
0@
#3340000
0#
08
09
#3350000
1#
18
19
1R
0L
0A
1S
0M
1B
15
02
11
1%
0&
1)
0Q
1C
#3360000
0#
08
09
#3370000
1#
18
19
0R
1D
0S
1E
14
01
1T
0%
1(
1H
00
0$
1@
#3380000
0#
08
09
#3390000
1#
18
19
1I
1A
1J
0B
05
13
1'
0)
1K
0C
#3400000
0#
08
09
#3410000
1#
18
19
1L
0D
1M
0E
04
12
1&
0(
1Q
0H
#3420000
0#
08
09
#3430000
1#
18
19
1R
0I
1S
0J
03
11
1%
0'
0K
#3440000
0#
08
09
#3450000
1#
18
19
0L
0M
02
0&
0Q
#3460000
0#
08
09
#3470000
1#
18
19
0R
0S
01
0T
0%
10
1$
0@
#3480000
0#
08
09
#3490000
1#
18
19
0A
1B
15
1T
1)
1C
00
0$
1@
#3500000
0#
08
09
#3510000
1#
18
19
1D
1A
1E
0B
05
14
0T
1(
0)
1H
0C
10
1$
0@
#3520000
0#
08
09
#3530000
1#
18
19
1I
0D
0A
1J
0E
1B
15
04
13
1'
0(
1)
1K
0H
1C
#3540000
0#
08
09
#3550000
1#
18
19
1L
0I
1D
1M
0J
1E
14
03
12
1T
1&
0'
1(
1Q
0K
1H
00
0$
1@
#3560000
0#
08
09
#3570000
1#
18
19
1R
0L
1I
1A
1S
0M
1J
0B
05
13
02
11
0T
1%
0&
1'
0)
0Q
1K
0C
10
1$
0@
#3580000
0#
08
09
#3590000
1#
18
19
0R
1L
0D
0A
0S
1M
0E
1B
15
04
12
01
0%
1&
0(
1)
1Q
0H
1C
#3600000
0#
08
09
#3610000
1#
18
19
1R
0I
1D
1S
0J
1E
14
03
11
1%
0'
1(
0K
1H
#3620000
0#
08
09
#3630000
1#
18
19
0L
1I
0M
1J
13
02
1T
0&
1'
0Q
1K
00
0$
1@
#3640000
0#
08
09
#3650000
1#
18
19
0R
1L
1A
0S
1M
0B
05
12
01
0%
1&
0)
1Q
0C
#3660000
0#
08
09
#3670000
1#
18
19
1R
0D
1S
0E
04
11
0T
1%
0(
0H
10
1$
0@
#3680000
0#
08
09
#3690000
1#
18
19
0I
0A
0J
1B
15
03
0'
1)
0K
1C
#3700000
0#
08
09
#3710000
1#
18
19
0L
1D
0M
1E
14
02
0&
1(
0Q
1H
#3720000
0#
08
09
#3730000
1#
18
19
0R
1I
0S
1J
13
01
0%
1'
1K
#3740000
0#
08
09
#3750000
1#
18
19
1L
1M
12
1N
1&
1Q
1T
00
0$
1@
#3760000
0#
08
09
#3770000
1#
18
19
1R
1A
1S
0B
05
11
0N
1%
0)
0C
0T
10
1$
0@
#3780000
0#
08
09
#3790000
1#
18
19
0D
0A
0E
1B
15
04
1T
0(
1)
0H
1C
00
0$
1@
#3800000
0#
08
09
#3810000
1#
18
19
0I
1D
1A
0J
1E
0B
05
14
03
0'
1(
0)
0K
1H
0C
#3820000
0#
08
09
#3830000
1#
18
19
0L
1I
0D
0M
1J
0E
04
13
02
0T
0&
1'
0(
0Q
1K
0H
10
1$
0@
#3840000
0#
08
09
#3850000
1#
18
19
0R
1L
0I
0A
0S
1M
0J
1B
15
03
12
01
1T
0%
1&
0'
1)
1Q
0K
1C
00
0$
1@
#3860000
0#
08
09
#3870000
1#
18
19
1R
0L
1D
1A
1S
0M
1E
0B
05
14
02
11
1%
0&
1(
0)
0Q
1H
0C
#3880000
0#
08
09
#3890000
1#
18
19
0R
1I
0D
0S
1J
0E
04
13
01
0%
1'
0(
1K
0H
#3900000
0#
08
09
#3910000
1#
18
19
1L
0I
1M
0J
03
12
0T
1&
0'
1Q
0K
10
1$
0@
#3920000
0#
08
09
#3930000
1#
18
19
1R
0L
0A
1S
0M
1B
15
02
11
1%
0&
1)
0Q
1C
#3940000
0#
08
09
#3950000
1#
18
19
0R
1D
0S
1E
14
01
1T
0%
1(
1H
00
0$
1@
#3960000
0#
08
09
#3970000
1#
18
19
1I
1A
1J
0B
05
13
1'
0)
1K
0C
#3980000
0#
08
09
#3990000
1#
18
19
1L
0D
1M
0E
04
12
1&
0(
1Q
0H
#4000000
0#
08
09
#4010000
1#
18
19
1R
0I
1S
0J
03
11
1%
0'
0K
#4020000
0#
08
09
#4030000
1#
18
19
0L
0M
02
0&
0Q
#4040000
0#
08
09
#4050000
1#
18
19
0R
0S
01
0T
0%
10
1$
0@
#4060000
0#
08
09
#4070000
1#
18
19
0A
1B
15
1T
1)
1C
00
0$
1@
#4080000
0#
08
09
#4090000
1#
18
19
1D
1A
1E
0B
05
14
0T
1(
0)
1H
0C
10
1$
0@
#4100000
0#
08
09
#4110000
1#
18
19
1I
0D
0A
1J
0E
1B
15
04
13
1'
0(
1)
1K
0H
1C
#4120000
0#
08
09
#4130000
1#
18
19
1L
0I
1D
1M
0J
1E
14
03
12
1T
1&
0'
1(
1Q
0K
1H
00
0$
1@
#4140000
0#
08
09
#4150000
1#
18
19
1R
0L
1I
1A
1S
0M
1J
0B
05
13
02
11
0T
1%
0&
1'
0)
0Q
1K
0C
10
1$
0@
#4160000
0#
08
09
#4170000
1#
18
19
0R
1L
0D
0A
0S
1M
0E
1B
15
04
12
01
0%
1&
0(
1)
1Q
0H
1C
#4180000
0#
08
09
#4190000
1#
18
19
1R
0I
1D
1S
0J
1E
14
03
11
1%
0'
1(
0K
1H
#4200000
0#
08
09
#4210000
1#
18
19
0L
1I
0M
1J
13
02
1T
0&
1'
0Q
1K
00
0$
1@
#4220000
0#
08
09
#4230000
1#
18
19
0R
1L
1A
0S
1M
0B
05
12
01
0%
1&
0)
1Q
0C
#4240000
0#
08
09
#4250000
1#
18
19
1R
0D
1S
0E
04
11
0T
1%
0(
0H
10
1$
0@
#4260000
0#
08
09
#4270000
1#
18
19
0I
0A
0J
1B
15
03
0'
1)
0K
1C
#4280000
0#
08
09
#4290000
1#
18
19
0L
1D
0M
1E
14
02
0&
1(
0Q
1H
#4300000
0#
08
09
#4310000
1#
18
19
0R
1I
0S
1J
13
01
0%
1'
1K
#4320000
0#
08
09
#4330000
1#
18
19
1L
1M
12
1N
1&
1Q
1T
00
0$
1@
#4340000
0#
08
09
#4350000
1#
18
19
1R
1A
1S
0B
05
11
0N
1%
0)
0C
0T
10
1$
0@
#4360000
0#
08
09
#4370000
1#
18
19
0D
0A
0E
1B
15
04
1T
0(
1)
0H
1C
00
0$
1@
#4380000
0#
08
09
#4390000
1#
18
19
0I
1D
1A
0J
1E
0B
05
14
03
0'
1(
0)
0K
1H
0C
#4400000
0#
08
09
