simulation/qsim/Mgenerator.msim.vcd
$comment
	File created using the following command:
		vcd file MGenerator.msim.vcd -direction
$end
$date
	Fri Oct 02 16:09:05 2020
$end
$version
	ModelSim Version 10.5b
$end
$timescale
	1ps
$end

$scope module DeBruijn_MGenerator_vlg_vec_tst $end
$var reg 1 ! ALOAD $end
$var reg 5 " ASDATA [4:0] $end
$var reg 1 # CLOCK $end
$var wire 1 $ OUT $end
$var wire 1 % STATE [4] $end
$var wire 1 & STATE [3] $end
$var wire 1 ' STATE [2] $end
$var wire 1 ( STATE [1] $end
$var wire 1 ) STATE [0] $end

$scope module i1 $end
$var wire 1 * gnd $end
$var wire 1 + vcc $end
$var wire 1 , unknown $end
$var tri1 1 - devclrn $end
$var tri1 1 . devpor $end
$var tri1 1 / devoe $end
$var wire 1 0 OUT~output_o $end
$var wire 1 1 STATE[4]~output_o $end
$var wire 1 2 STATE[3]~output_o $end
$var wire 1 3 STATE[2]~output_o $end
$var wire 1 4 STATE[1]~output_o $end
$var wire 1 5 STATE[0]~output_o $end
$var wire 1 6 ASDATA[0]~input_o $end
$var wire 1 7 ALOAD~input_o $end
$var wire 1 8 ALOAD~inputclkctrl_outclk $end
$var wire 1 9 inst~1_combout $end
$var wire 1 : CLOCK~input_o $end
$var wire 1 ; CLOCK~inputclkctrl_outclk $end
$var wire 1 < ASDATA[1]~input_o $end
$var wire 1 = inst1~1_combout $end
$var wire 1 > inst1~3_combout $end
$var wire 1 ? inst1~_emulated_q $end
$var wire 1 @ inst1~2_combout $end
$var wire 1 A ASDATA[4]~input_o $end
$var wire 1 B inst4~1_combout $end
$var wire 1 C ASDATA[3]~input_o $end
$var wire 1 D inst3~1_combout $end
$var wire 1 E ASDATA[2]~input_o $end
$var wire 1 F inst2~1_combout $end
$var wire 1 G inst2~3_combout $end
$var wire 1 H inst2~_emulated_q $end
$var wire 1 I inst2~2_combout $end
$var wire 1 J inst3~3_combout $end
$var wire 1 K inst3~_emulated_q $end
$var wire 1 L inst3~2_combout $end
$var wire 1 M inst4~3_combout $end
$var wire 1 N inst4~_emulated_q $end
$var wire 1 O inst4~2_combout $end
$var wire 1 P inst11~0_combout $end
$var wire 1 Q inst~3_combout $end
$var wire 1 R inst~_emulated_q $end
$var wire 1 S inst~2_combout $end
$var wire 1 T inst7~0_combout $end
$var wire 1 U inst11~combout $end
$upscope $end
$upscope $end
$enddefinitions $end
#0
$dumpvars
1!
b1 "
0#
0$
1)
0(
0'
0&
0%
0*
1+
x,
1-
1.
1/
00
01
02
03
04
15
16
17
18
19
0:
0;
0<
0=
1>
0?
0@
0A
0B
0C
0D
0E
0F
0G
0H
0I
0J
0K
0L
0M
0N
0O
1P
1Q
0R
1S
0T
1U
$end
#10000
0!
b0 "
07
06
08
#12500
1#
1:
1;
1R
1?
0S
1@
14
05
0)
1(
0>
1G
#25000
0#
0:
0;
#37500
1#
1:
1;
1H
0?
1I
0@
04
13
0P
1'
0(
1J
0G
0U
0Q
10
1$
#50000
0#
0:
0;
#62500
1#
1:
1;
0R
1K
0H
1S
1L
0I
03
12
15
1)
1&
0'
1>
1M
0J
#75000
0#
0:
0;
#87500
1#
1:
1;
1N
0K
1?
1O
0L
1@
14
02
11
1P
1%
0&
1(
0M
1G
1U
1Q
00
0$
#100000
0#
0:
0;
#112500
1#
1:
1;
1R
0N
1H
0S
0O
1I
13
01
05
0)
0%
1'
0>
1J
#125000
0#
0:
0;
#137500
1#
1:
1;
1K
0?
1L
0@
04
12
1&
0(
1M
0G
#150000
0#
0:
0;
#162500
1#
1:
1;
1N
0H
1O
0I
03
11
0P
1%
0'
0J
0U
0Q
10
1$
#175000
0#
0:
0;
#187500
1#
1:
1;
0R
0K
1S
0L
02
15
1)
0&
1>
0M
#200000
0#
0:
0;
#212500
1#
1:
1;
0N
1?
0O
1@
14
01
0%
1(
1G
#225000
0#
0:
0;
#237500
1#
1:
1;
1H
1I
13
1'
1J
#250000
0#
0:
0;
#262500
1#
1:
1;
1K
1L
12
1T
1P
1&
1M
#275000
0#
0:
0;
#287500
1#
1:
1;
1N
1O
11
0P
1%
1U
1Q
00
0$
#300000
0#
0:
0;
#312500
1#
1:
1;
1R
0S
05
0T
1P
0)
0>
#325000
0#
0:
0;
#337500
1#
1:
1;
0?
0@
04
0P
0(
0G
0U
0Q
10
1$
#350000
0#
0:
0;
#362500
1#
1:
1;
0R
0H
1S
0I
03
15
1P
1)
0'
1>
0J
1U
1Q
00
0$
#375000
0#
0:
0;
#387500
1#
1:
1;
1R
0K
1?
0S
0L
1@
14
02
05
0P
0)
0&
1(
0>
0M
1G
0U
0Q
10
1$
#400000
0#
0:
0;
#412500
1#
1:
1;
0R
0N
1H
0?
1S
0O
1I
0@
04
13
01
15
1P
1)
0%
1'
0(
1>
1J
0G
1U
1Q
00
0$
#425000
0#
0:
0;
#437500
1#
1:
1;
1R
1K
0H
1?
0S
1L
0I
1@
14
03
12
05
0P
0)
1&
0'
1(
0>
1M
0J
1G
0U
0Q
10
1$
#450000
0#
0:
0;
#462500
1#
1:
1;
0R
1N
0K
1H
0?
1S
1O
0L
1I
0@
04
13
02
11
15
1)
1%
0&
1'
0(
1>
0M
1J
0G
#475000
0#
0:
0;
#487500
1#
1:
1;
0N
1K
0H
1?
0O
1L
0I
1@
14
03
12
01
1P
0%
1&
0'
1(
1M
0J
1G
1U
1Q
00
0$
#500000
0#
0:
0;
#512500
1#
1:
1;
1R
1N
0K
1H
0S
1O
0L
1I
13
02
11
05
0P
0)
1%
0&
1'
0>
0M
1J
0U
0Q
10
1$
#525000
0#
0:
0;
#537500
1#
1:
1;
0R
0N
1K
0?
1S
0O
1L
0@
04
12
01
15
1)
0%
1&
0(
1>
1M
0G
#550000
0#
0:
0;
#562500
1#
1:
1;
1N
0H
1?
1O
0I
1@
14
03
11
1%
0'
1(
0J
1G
#575000
0#
0:
0;
#587500
1#
1:
1;
0K
1H
0L
1I
13
02
1P
0&
1'
0M
1J
1U
1Q
00
0$
#600000
0#
0:
0;
#612500
1#
1:
1;
1R
0N
1K
0S
0O
1L
12
01
05
0P
0)
0%
1&
0>
1M
0U
0Q
10
1$
#625000
0#
0:
0;
#637500
1#
1:
1;
0R
1N
0?
1S
1O
0@
04
11
15
1P
1)
1%
0(
1>
0G
1U
1Q
00
0$
#650000
0#
0:
0;
#662500
1#
1:
1;
1R
0H
1?
0S
0I
1@
14
03
05
0)
0'
1(
0>
0J
1G
#675000
0#
0:
0;
#687500
1#
1:
1;
0K
1H
0?
0L
1I
0@
04
13
02
0&
1'
0(
0M
1J
0G
#700000
0#
0:
0;
#712500
1#
1:
1;
0N
1K
0H
0O
1L
0I
03
12
01
0%
1&
0'
1M
0J
#725000
0#
0:
0;
#737500
1#
1:
1;
1N
0K
1O
0L
02
11
1%
0&
0M
#750000
0#
0:
0;
#762500
1#
1:
1;
0N
0O
01
0P
0%
0U
0Q
10
1$
#775000
0#
0:
0;
#787500
1#
1:
1;
0R
1S
15
1P
1)
1>
1U
1Q
00
0$
#800000
0#
0:
0;
#812500
1#
1:
1;
1R
1?
0S
1@
14
05
0)
1(
0>
1G
#825000
0#
0:
0;
#837500
1#
1:
1;
1H
0?
1I
0@
04
13
0P
1'
0(
1J
0G
0U
0Q
10
1$
#850000
0#
0:
0;
#862500
1#
1:
1;
0R
1K
0H
1S
1L
0I
03
12
15
1)
1&
0'
1>
1M
0J
#875000
0#
0:
0;
#887500
1#
1:
1;
1N
0K
1?
1O
0L
1@
14
02
11
1P
1%
0&
1(
0M
1G
1U
1Q
00
0$
#900000
0#
0:
0;
#912500
1#
1:
1;
1R
0N
1H
0S
0O
1I
13
01
05
0)
0%
1'
0>
1J
#925000
0#
0:
0;
#937500
1#
1:
1;
1K
0?
1L
0@
04
12
1&
0(
1M
0G
#950000
0#
0:
0;
#962500
1#
1:
1;
1N
0H
1O
0I
03
11
0P
1%
0'
0J
0U
0Q
10
1$
#975000
0#
0:
0;
#987500
1#
1:
1;
0R
0K
1S
0L
02
15
1)
0&
1>
0M
